Added Component: Designator=R21(RES_0603)
Add component (AddParameter): Name = "Manufacturer"; Value = "Kelco"; VariantName = "[No Variations]"
Add component (AddParameter): Name = "Manufacturer Part Number"; Value = "11701"; VariantName = "[No Variations]"
Add component (AddParameter): Name = "Package"; Value = "0603"; VariantName = "[No Variations]"
Add component (AddParameter): Name = "Power"; Value = "0.1W"; VariantName = "[No Variations]"
Add component (AddParameter): Name = "Power Derating"; Value = "/"; VariantName = "[No Variations]"
Add component (AddParameter): Name = "Resistance"; Value = "1K"; VariantName = "[No Variations]"
Add component (AddParameter): Name = "Supplier"; Value = "Kelco"; VariantName = "[No Variations]"
Add component (AddParameter): Name = "Supplier Part Number"; Value = "11701"; VariantName = "[No Variations]"
Add component (AddParameter): Name = "Temperature Range"; Value = "/"; VariantName = "[No Variations]"
Add component (AddParameter): Name = "Tolerance"; Value = "1%"; VariantName = "[No Variations]"
Added Pin To Net: NetName=NetLED_1_A Pin=R21-1
Added Pin To Net: NetName=LV_12V_PRT Pin=R21-2
