Change Physical Footprint: Designator=C1 Old Footprint=CAP_0805 New Footprint=CAP_0805
Change Physical Footprint: Designator=C2 Old Footprint=CAP_0603 New Footprint=CAP_0603
Change Physical Footprint: Designator=C3 Old Footprint=CAP_1210 New Footprint=CAP_1210
Change Physical Footprint: Designator=C4 Old Footprint=CAP_0805 New Footprint=CAP_0805
Change Physical Footprint: Designator=C5 Old Footprint=CAP_0805 New Footprint=CAP_0805
Change Physical Footprint: Designator=C6 Old Footprint=CAP_0805 New Footprint=CAP_0805
Change Physical Footprint: Designator=C7 Old Footprint=CAP_0603 New Footprint=CAP_0603
Change Physical Footprint: Designator=C8 Old Footprint=CAP_0805 New Footprint=CAP_0805
Change Physical Footprint: Designator=C9 Old Footprint=CAP_0805 New Footprint=CAP_0805
Change Physical Footprint: Designator=C10 Old Footprint=TCAP_2917 New Footprint=TCAP_2917
Change Physical Footprint: Designator=C11 Old Footprint=CAP_0603 New Footprint=CAP_0603
Change Physical Footprint: Designator=C12 Old Footprint=CAP_0603 New Footprint=CAP_0603
Change Physical Footprint: Designator=C13 Old Footprint=CAP_0603 New Footprint=CAP_0603
Change Physical Footprint: Designator=C14 Old Footprint=CAP_0603 New Footprint=CAP_0603
Change Physical Footprint: Designator=C15 Old Footprint=CAP_0603 New Footprint=CAP_0603
Change Physical Footprint: Designator=C16 Old Footprint=CAP_0603 New Footprint=CAP_0603
Change Physical Footprint: Designator=C17 Old Footprint=CAP_0603 New Footprint=CAP_0603
Change Physical Footprint: Designator=C18 Old Footprint=CAP_0603 New Footprint=CAP_0603
Change Physical Footprint: Designator=C19 Old Footprint=CAP_0603 New Footprint=CAP_0603
Change Physical Footprint: Designator=C20 Old Footprint=CAP_0603 New Footprint=CAP_0603
Change Physical Footprint: Designator=C21 Old Footprint=CAP_0603 New Footprint=CAP_0603
Change Physical Footprint: Designator=C22 Old Footprint=CAP_0805 New Footprint=CAP_0805
Change Physical Footprint: Designator=C23 Old Footprint=CAP_0805 New Footprint=CAP_0805
Change Physical Footprint: Designator=C24 Old Footprint=CAP_0603 New Footprint=CAP_0603
Change Physical Footprint: Designator=C26 Old Footprint=CAP_0805 New Footprint=CAP_0805
Change Physical Footprint: Designator=C27 Old Footprint=CAP_0805 New Footprint=CAP_0805
Change Physical Footprint: Designator=C28 Old Footprint=CAP_0805 New Footprint=CAP_0805
Change Physical Footprint: Designator=C29 Old Footprint=CAP_0805 New Footprint=CAP_0805
Change Physical Footprint: Designator=C30 Old Footprint=CAP_0603 New Footprint=CAP_0603
Change Physical Footprint: Designator=C31 Old Footprint=CAP_1206 New Footprint=CAP_1206
Change Physical Footprint: Designator=C32 Old Footprint=CAP_0603 New Footprint=CAP_0603
Change Physical Footprint: Designator=CAN 1 Old Footprint=CONN_MATE-N-LOCK_VERT_2x2M New Footprint=CONN_MATE-N-LOCK_VERT_2x2M
Change Physical Footprint: Designator=CAN 2 Old Footprint=CONN_MATE-N-LOCK_VERT_2x2M New Footprint=CONN_MATE-N-LOCK_VERT_2x2M
Change Physical Footprint: Designator=CAN IC Old Footprint=8-SOIC New Footprint=8-SOIC
Change Physical Footprint: Designator=CR1 Old Footprint=CRYSTAL_11.4X4.8 New Footprint=CRYSTAL_11.4X4.8
Change Physical Footprint: Designator=D1 Old Footprint=SS14L New Footprint=SS14L
Change Physical Footprint: Designator=DH5 Old Footprint=M4_Distancer_Hole New Footprint=M4_Distancer_Hole
Change Physical Footprint: Designator=DH6 Old Footprint=M4_Distancer_Hole New Footprint=M4_Distancer_Hole
Change Physical Footprint: Designator=DH7 Old Footprint=M4_Distancer_Hole New Footprint=M4_Distancer_Hole
Change Physical Footprint: Designator=DH8 Old Footprint=M4_Distancer_Hole New Footprint=M4_Distancer_Hole
Change Physical Footprint: Designator=F1 Old Footprint=FUSE_0603 New Footprint=FUSE_0603
Change Physical Footprint: Designator=F2 Old Footprint=FUSE_0603 New Footprint=FUSE_0603
Change Physical Footprint: Designator=F3 Old Footprint=FUSE_0603 New Footprint=FUSE_0603
Change Physical Footprint: Designator=F4 Old Footprint=FUSE_0603 New Footprint=FUSE_0603
Change Physical Footprint: Designator=F5 Old Footprint=FUSE_0603 New Footprint=FUSE_0603
Change Physical Footprint: Designator=F6 Old Footprint=FUSE_0603 New Footprint=FUSE_0603
Change Physical Footprint: Designator=F7 Old Footprint=FUSE_0603 New Footprint=FUSE_0603
Change Physical Footprint: Designator=FER1 Old Footprint=FER_1206 New Footprint=FER_1206
Change Physical Footprint: Designator=FER2 Old Footprint=FER_0603 New Footprint=FER_0603
Change Physical Footprint: Designator=IC1 Old Footprint=TSSOP-20 New Footprint=TSSOP-20
Change Physical Footprint: Designator=IC3 Old Footprint=14-LGA New Footprint=14-LGA
Change Physical Footprint: Designator=LDO1 Old Footprint=SOT-23-5 New Footprint=SOT-23-5
Change Physical Footprint: Designator=LDO2 Old Footprint=SOT-23-5 New Footprint=SOT-23-5
Change Physical Footprint: Designator=LED_1 Old Footprint=LED_0603 New Footprint=LED_0603
Change Physical Footprint: Designator=LED_2 Old Footprint=LED_0603 New Footprint=LED_0603
Change Physical Footprint: Designator=LED_3 Old Footprint=LED_0603 New Footprint=LED_0603
Change Physical Footprint: Designator=LV_1 Old Footprint=LED_0603 New Footprint=LED_0603
Change Physical Footprint: Designator=prog Old Footprint=CONN_HEADER_M_1x6 New Footprint=CONN_HEADER_M_1x6
Change Physical Footprint: Designator=Q1 Old Footprint=SOT-23 New Footprint=SOT-23
Change Physical Footprint: Designator=R1 Old Footprint=RES_0603 New Footprint=RES_0603
Change Physical Footprint: Designator=R2 Old Footprint=RES_0603 New Footprint=RES_0603
Change Physical Footprint: Designator=R3 Old Footprint=RES_0603 New Footprint=RES_0603
Change Physical Footprint: Designator=R4 Old Footprint=RES_0603 New Footprint=RES_0603
Change Physical Footprint: Designator=R5 Old Footprint=RES_0603 New Footprint=RES_0603
Change Physical Footprint: Designator=R6 Old Footprint=RES_0603 New Footprint=RES_0603
Change Physical Footprint: Designator=R7 Old Footprint=RES_0603 New Footprint=RES_0603
Change Physical Footprint: Designator=R8 Old Footprint=RES_0603 New Footprint=RES_0603
Change Physical Footprint: Designator=R9 Old Footprint=RES_0603 New Footprint=RES_0603
Change Physical Footprint: Designator=R10 Old Footprint=RES_0603 New Footprint=RES_0603
Change Physical Footprint: Designator=R11 Old Footprint=RES_0603 New Footprint=RES_0603
Change Physical Footprint: Designator=R12 Old Footprint=RES_0603 New Footprint=RES_0603
Change Physical Footprint: Designator=R13 Old Footprint=RES_0603 New Footprint=RES_0603
Change Physical Footprint: Designator=R14 Old Footprint=RES_0603 New Footprint=RES_0603
Change Physical Footprint: Designator=R15 Old Footprint=RES_0603 New Footprint=RES_0603
Change Physical Footprint: Designator=R16 Old Footprint=RES_0603 New Footprint=RES_0603
Change Physical Footprint: Designator=R17 Old Footprint=RES_0603 New Footprint=RES_0603
Change Physical Footprint: Designator=R18 Old Footprint=RES_0805 New Footprint=RES_0805
Change Physical Footprint: Designator=R19 Old Footprint=RES_0805 New Footprint=RES_0805
Change Physical Footprint: Designator=R20 Old Footprint=RES_0603 New Footprint=RES_0603
Change Physical Footprint: Designator=R21 Old Footprint=RES_0603 New Footprint=RES_0603
Change Physical Footprint: Designator=R22 Old Footprint=RES_0603 New Footprint=RES_0603
Change Physical Footprint: Designator=R23 Old Footprint=RES_0603 New Footprint=RES_0603
Change Physical Footprint: Designator=R24 Old Footprint=RES_0805 New Footprint=RES_0805
Change Physical Footprint: Designator=R25 Old Footprint=RES_1206 New Footprint=RES_1206
Change Physical Footprint: Designator=R26 Old Footprint=RES_0603 New Footprint=RES_0603
Change Physical Footprint: Designator=R27 Old Footprint=RES_0603 New Footprint=RES_0603
Change Physical Footprint: Designator=R28 Old Footprint=RES_0603 New Footprint=RES_0603
Change Physical Footprint: Designator=R29 Old Footprint=RES_0603 New Footprint=RES_0603
Change Physical Footprint: Designator=R30 Old Footprint=RES_0603 New Footprint=RES_0603
Change Physical Footprint: Designator=R31 Old Footprint=RES_0603 New Footprint=RES_0603
Change Physical Footprint: Designator=R32 Old Footprint=RES_0603 New Footprint=RES_0603
Change Physical Footprint: Designator=R33 Old Footprint=RES_0603 New Footprint=RES_0603
Change Physical Footprint: Designator=R34 Old Footprint=RES_0603 New Footprint=RES_0603
Change Physical Footprint: Designator=R35 Old Footprint=RES_0603 New Footprint=RES_0603
Change Physical Footprint: Designator=R36 Old Footprint=RES_0603 New Footprint=RES_0603
Change Physical Footprint: Designator=R37 Old Footprint=RES_0603 New Footprint=RES_0603
Change Physical Footprint: Designator=R38 Old Footprint=RES_0603 New Footprint=RES_0603
Change Physical Footprint: Designator=R39 Old Footprint=RES_0603 New Footprint=RES_0603
Change Physical Footprint: Designator=R40 Old Footprint=RES_0603 New Footprint=RES_0603
Change Physical Footprint: Designator=R41 Old Footprint=RES_0603 New Footprint=RES_0603
Change Physical Footprint: Designator=R42 Old Footprint=RES_0603 New Footprint=RES_0603
Change Physical Footprint: Designator=R43 Old Footprint=RES_0603 New Footprint=RES_0603
Change Physical Footprint: Designator=R44 Old Footprint=RES_0603 New Footprint=RES_0603
Change Physical Footprint: Designator=R45 Old Footprint=RES_0603 New Footprint=RES_0603
Change Physical Footprint: Designator=R46 Old Footprint=RES_0603 New Footprint=RES_0603
Change Physical Footprint: Designator=R47 Old Footprint=RES_0603 New Footprint=RES_0603
Change Physical Footprint: Designator=R48 Old Footprint=RES_0603 New Footprint=RES_0603
Change Physical Footprint: Designator=R49 Old Footprint=RES_0603 New Footprint=RES_0603
Change Physical Footprint: Designator=R50 Old Footprint=RES_0603 New Footprint=RES_0603
Change Physical Footprint: Designator=R51 Old Footprint=RES_0603 New Footprint=RES_0603
Change Physical Footprint: Designator=R52 Old Footprint=RES_0603 New Footprint=RES_0603
Change Physical Footprint: Designator=R53 Old Footprint=RES_0603 New Footprint=RES_0603
Change Physical Footprint: Designator=R54 Old Footprint=RES_0603 New Footprint=RES_0603
Change Physical Footprint: Designator=R55 Old Footprint=RES_0603 New Footprint=RES_0603
Change Physical Footprint: Designator=R56 Old Footprint=RES_0603 New Footprint=RES_0603
Change Physical Footprint: Designator=R57 Old Footprint=RES_0603 New Footprint=RES_0603
Change Physical Footprint: Designator=R58 Old Footprint=RES_0603 New Footprint=RES_0603
Change Physical Footprint: Designator=R59 Old Footprint=RES_0603 New Footprint=RES_0603
Change Physical Footprint: Designator=R60 Old Footprint=RES_0603 New Footprint=RES_0603
Change Physical Footprint: Designator=R61 Old Footprint=RES_0603 New Footprint=RES_0603
Change Physical Footprint: Designator=R62 Old Footprint=RES_0603 New Footprint=RES_0603
Change Physical Footprint: Designator=R64 Old Footprint=RES_0603 New Footprint=RES_0603
Change Physical Footprint: Designator=R65 Old Footprint=RES_0603 New Footprint=RES_0603
Change Physical Footprint: Designator=R66 Old Footprint=RES_0603 New Footprint=RES_0603
Change Physical Footprint: Designator=R67 Old Footprint=RES_0603 New Footprint=RES_0603
Change Physical Footprint: Designator=R68 Old Footprint=RES_0603 New Footprint=RES_0603
Change Physical Footprint: Designator=R69 Old Footprint=RES_0603 New Footprint=RES_0603
Change Physical Footprint: Designator=R70 Old Footprint=RES_0603 New Footprint=RES_0603
Change Physical Footprint: Designator=R71 Old Footprint=RES_0603 New Footprint=RES_0603
Change Physical Footprint: Designator=S1 Old Footprint=SLIDE SWITCH New Footprint=SLIDE SWITCH
Change Physical Footprint: Designator=sensor 0 Old Footprint=CONN_MATE-N-LOCK_VERT_2x2M New Footprint=CONN_MATE-N-LOCK_VERT_2x2M
Change Physical Footprint: Designator=sensor 1 Old Footprint=CONN_MATE-N-LOCK_VERT_2x2M New Footprint=CONN_MATE-N-LOCK_VERT_2x2M
Change Physical Footprint: Designator=sensor 2 Old Footprint=CONN_MATE-N-LOCK_VERT_2x2M New Footprint=CONN_MATE-N-LOCK_VERT_2x2M
Change Physical Footprint: Designator=sensor 3 Old Footprint=CONN_MATE-N-LOCK_VERT_2x2M New Footprint=CONN_MATE-N-LOCK_VERT_2x2M
Change Physical Footprint: Designator=sensor 4 Old Footprint=CONN_MATE-N-LOCK_VERT_2x2M New Footprint=CONN_MATE-N-LOCK_VERT_2x2M
Change Physical Footprint: Designator=sensor 5 Old Footprint=CONN_MATE-N-LOCK_VERT_2x2M New Footprint=CONN_MATE-N-LOCK_VERT_2x2M
Change Physical Footprint: Designator=T1 Old Footprint=BUTTON_4PIN New Footprint=BUTTON_4PIN
Change Physical Footprint: Designator=TP_1 Old Footprint=Testpoint_SMD New Footprint=Testpoint_SMD
Change Physical Footprint: Designator=TP_2 Old Footprint=Testpoint_SMD New Footprint=Testpoint_SMD
Change Physical Footprint: Designator=TP_3 Old Footprint=Testpoint_SMD New Footprint=Testpoint_SMD
Change Physical Footprint: Designator=TVS1 Old Footprint=DO214AA New Footprint=DO214AA
Change Physical Footprint: Designator=TVS2 Old Footprint=DO214AA New Footprint=DO214AA
Change Physical Footprint: Designator=TVS3 Old Footprint=DO214AA New Footprint=DO214AA
Change Physical Footprint: Designator=Voltage Supply Old Footprint=CONN_MATE-N-LOCK_VERT_2x2M New Footprint=CONN_MATE-N-LOCK_VERT_2x2M
