G04*
G04 #@! TF.GenerationSoftware,Altium Limited,Altium Designer,20.0.13 (296)*
G04*
G04 Layer_Physical_Order=1*
G04 Layer_Color=255*
%FSLAX25Y25*%
%MOIN*%
G70*
G01*
G75*
%ADD12C,0.01000*%
%ADD26R,0.05800X0.01400*%
%ADD33R,0.09843X0.09055*%
%ADD34R,0.03543X0.03543*%
%ADD35R,0.03543X0.03543*%
%ADD36R,0.05118X0.04134*%
%ADD37R,0.02756X0.03937*%
%ADD38R,0.02756X0.03543*%
%ADD39R,0.03543X0.04331*%
%ADD40R,0.04331X0.03543*%
G04:AMPARAMS|DCode=41|XSize=23.23mil|YSize=53.94mil|CornerRadius=1.74mil|HoleSize=0mil|Usage=FLASHONLY|Rotation=270.000|XOffset=0mil|YOffset=0mil|HoleType=Round|Shape=RoundedRectangle|*
%AMROUNDEDRECTD41*
21,1,0.02323,0.05045,0,0,270.0*
21,1,0.01974,0.05394,0,0,270.0*
1,1,0.00348,-0.02523,-0.00987*
1,1,0.00348,-0.02523,0.00987*
1,1,0.00348,0.02523,0.00987*
1,1,0.00348,0.02523,-0.00987*
%
%ADD41ROUNDEDRECTD41*%
G04:AMPARAMS|DCode=42|XSize=68.9mil|YSize=23.62mil|CornerRadius=0.59mil|HoleSize=0mil|Usage=FLASHONLY|Rotation=270.000|XOffset=0mil|YOffset=0mil|HoleType=Round|Shape=RoundedRectangle|*
%AMROUNDEDRECTD42*
21,1,0.06890,0.02244,0,0,270.0*
21,1,0.06772,0.02362,0,0,270.0*
1,1,0.00118,-0.01122,-0.03386*
1,1,0.00118,-0.01122,0.03386*
1,1,0.00118,0.01122,0.03386*
1,1,0.00118,0.01122,-0.03386*
%
%ADD42ROUNDEDRECTD42*%
%ADD43R,0.11417X0.05512*%
%ADD44C,0.02000*%
%ADD45C,0.03000*%
%ADD46C,0.01500*%
%ADD47C,0.07087*%
%ADD48C,0.12598*%
%ADD49C,0.06000*%
%ADD50C,0.23622*%
%ADD51C,0.02756*%
G36*
X292037Y222237D02*
X297321Y216953D01*
X296690Y216215D01*
X295637Y214495D01*
X294865Y212632D01*
X294394Y210672D01*
X294236Y208661D01*
X294394Y206651D01*
X294865Y204690D01*
X295637Y202827D01*
X296690Y201108D01*
X298000Y199575D01*
X299533Y198265D01*
X301253Y197211D01*
X303116Y196440D01*
X305076Y195969D01*
X307087Y195811D01*
X309097Y195969D01*
X311058Y196440D01*
X312921Y197211D01*
X314640Y198265D01*
X315378Y198896D01*
X322835Y191439D01*
Y39935D01*
X313612Y30712D01*
X312921Y31135D01*
X311058Y31907D01*
X309097Y32377D01*
X307087Y32536D01*
X305076Y32377D01*
X303116Y31907D01*
X301253Y31135D01*
X299533Y30081D01*
X298000Y28772D01*
X296690Y27239D01*
X295637Y25519D01*
X294865Y23656D01*
X294394Y21695D01*
X294236Y19685D01*
X294394Y17675D01*
X294865Y15714D01*
X295637Y13851D01*
X296060Y13160D01*
X288537Y5637D01*
X69509D01*
Y7284D01*
X66737D01*
Y8284D01*
X69509D01*
Y10556D01*
X69509D01*
Y10918D01*
X69509D01*
Y16461D01*
X68476D01*
Y18306D01*
X69440Y18566D01*
X69493Y18551D01*
X69551Y18463D01*
X69902Y18229D01*
X70315Y18147D01*
X72559D01*
X72972Y18229D01*
X73323Y18463D01*
X73557Y18813D01*
X73639Y19227D01*
Y21083D01*
X99812D01*
X100398Y21199D01*
X100894Y21531D01*
X107018Y27656D01*
X107158Y27864D01*
X107565Y27896D01*
X108213Y27753D01*
X108572Y26567D01*
X109250Y25299D01*
X110162Y24188D01*
X111274Y23276D01*
X112542Y22598D01*
X113918Y22180D01*
X115348Y22039D01*
X116779Y22180D01*
X118155Y22598D01*
X119423Y23276D01*
X120535Y24188D01*
X121447Y25299D01*
X122125Y26567D01*
X122542Y27943D01*
X122683Y29374D01*
X122542Y30805D01*
X122125Y32181D01*
X121447Y33449D01*
X120535Y34560D01*
X119423Y35472D01*
X118155Y36150D01*
X116779Y36568D01*
X115348Y36709D01*
X113918Y36568D01*
X112542Y36150D01*
X111274Y35472D01*
X110162Y34560D01*
X109250Y33449D01*
X108572Y32181D01*
X108466Y31832D01*
X107466Y31980D01*
Y110616D01*
X108451Y111439D01*
X108587Y111413D01*
X109515Y111597D01*
X110508Y111058D01*
Y107144D01*
X110624Y106559D01*
X110956Y106062D01*
X114592Y102426D01*
X115088Y102095D01*
X115673Y101979D01*
X134305D01*
Y101808D01*
X142105D01*
Y104367D01*
Y106926D01*
Y109485D01*
Y112044D01*
Y115444D01*
X134305D01*
Y115273D01*
X126290D01*
X126240Y115524D01*
X125714Y116310D01*
X124928Y116836D01*
X124000Y117020D01*
X123072Y116836D01*
X122286Y116310D01*
X121760Y115524D01*
X121688Y115164D01*
X121444Y115084D01*
X120648Y115058D01*
X120251Y115651D01*
X119465Y116177D01*
X118622Y116345D01*
X118420Y116664D01*
X118171Y117308D01*
X124118Y123256D01*
X124162Y123320D01*
X125280Y123532D01*
X125394Y123502D01*
X131116Y117781D01*
X131612Y117449D01*
X132197Y117333D01*
X134305D01*
Y117162D01*
X142105D01*
Y119721D01*
Y122280D01*
Y124839D01*
Y128239D01*
X141047D01*
X140348Y129239D01*
X140425Y129622D01*
X140410Y129698D01*
X141044Y130471D01*
X186094D01*
X186680Y130587D01*
X187176Y130919D01*
X192081Y135824D01*
X192413Y136320D01*
X192529Y136906D01*
Y148228D01*
X193772D01*
X193772Y148228D01*
X194134D01*
Y148228D01*
X194772Y148228D01*
X199677D01*
Y153772D01*
X200488Y154228D01*
X201772Y154228D01*
X202772Y154228D01*
X204405D01*
Y157000D01*
Y159772D01*
X202772D01*
X202134Y159772D01*
X201134Y159772D01*
X196228D01*
Y159772D01*
X195724D01*
Y159772D01*
X192563D01*
X191772Y160276D01*
Y165181D01*
X191772Y165819D01*
X191772Y166819D01*
Y168453D01*
X189000D01*
X186228D01*
Y166819D01*
X186228Y166181D01*
X186228Y165236D01*
X186198Y165207D01*
X184802D01*
X184772Y165236D01*
Y165772D01*
X184772Y166772D01*
Y171677D01*
X179228D01*
Y170435D01*
X177772D01*
Y171772D01*
X172866D01*
X172228Y171772D01*
X171746D01*
X171039Y172479D01*
Y182897D01*
X170884Y183677D01*
X170442Y184339D01*
X150539Y204242D01*
X150643Y204494D01*
X150800Y205680D01*
X150643Y206866D01*
X150186Y207971D01*
X149457Y208921D01*
X148508Y209649D01*
X147403Y210106D01*
X146217Y210263D01*
X145031Y210106D01*
X143926Y209649D01*
X142977Y208921D01*
X142248Y207971D01*
X141791Y206866D01*
X141635Y205680D01*
X141791Y204494D01*
X142248Y203389D01*
X142977Y202440D01*
X143926Y201712D01*
X145031Y201254D01*
X146217Y201098D01*
X147403Y201254D01*
X147655Y201358D01*
X166961Y182053D01*
Y172410D01*
X166323Y171772D01*
X165323Y171772D01*
X160417D01*
Y170283D01*
X159417Y170185D01*
X159392Y170312D01*
X158839Y171139D01*
X158012Y171692D01*
X157037Y171886D01*
X156062Y171692D01*
X155883Y171573D01*
X154161D01*
Y171795D01*
X149256D01*
X148618Y171795D01*
X147618Y171795D01*
X142713D01*
Y171573D01*
X137429D01*
Y171795D01*
X132524D01*
X131886Y171795D01*
X130886Y171795D01*
X129701D01*
Y178831D01*
X129507Y179806D01*
X128954Y180633D01*
X124286Y185302D01*
Y198080D01*
X127832Y201626D01*
X128732Y201254D01*
X129918Y201098D01*
X131104Y201254D01*
X132209Y201712D01*
X133158Y202440D01*
X133886Y203389D01*
X134344Y204494D01*
X134500Y205680D01*
X134344Y206866D01*
X133886Y207971D01*
X133158Y208921D01*
X132209Y209649D01*
X131104Y210106D01*
X129918Y210263D01*
X128732Y210106D01*
X127627Y209649D01*
X126677Y208921D01*
X125949Y207971D01*
X125491Y206866D01*
X125435Y206438D01*
X119935Y200938D01*
X119382Y200111D01*
X119188Y199135D01*
Y184246D01*
X119382Y183271D01*
X119935Y182443D01*
X124603Y177775D01*
Y170624D01*
X124797Y169648D01*
X125350Y168821D01*
X125980Y168191D01*
Y166252D01*
X130886D01*
X131524Y166252D01*
X132108Y165494D01*
Y162092D01*
X132302Y161117D01*
X132855Y160290D01*
X139950Y153196D01*
X140060Y153122D01*
Y152226D01*
X144965D01*
X145603Y152226D01*
X146603Y152226D01*
X151509D01*
Y152888D01*
X157337D01*
X158312Y153082D01*
X159139Y153635D01*
X159548Y154246D01*
X161728D01*
X161876Y154276D01*
X165484Y154276D01*
X165968Y153968D01*
X166276Y153484D01*
Y149075D01*
X165430Y148521D01*
X165276Y148497D01*
X164439Y148664D01*
X163512Y148479D01*
X162725Y147954D01*
X162199Y147167D01*
X162015Y146239D01*
X162199Y145311D01*
X162725Y144525D01*
X162910Y144401D01*
Y142317D01*
X162220Y142031D01*
X161384Y141390D01*
X160743Y140554D01*
X160340Y139581D01*
X160203Y138537D01*
X160340Y137493D01*
X160743Y136520D01*
X161384Y135684D01*
X162220Y135043D01*
X163193Y134640D01*
X164033Y134529D01*
X163967Y133529D01*
X154507D01*
X154441Y134529D01*
X155281Y134640D01*
X156254Y135043D01*
X157090Y135684D01*
X157731Y136520D01*
X158134Y137493D01*
X158272Y138537D01*
X158134Y139581D01*
X157731Y140554D01*
X157090Y141390D01*
X156254Y142031D01*
X155281Y142434D01*
X154237Y142571D01*
X153193Y142434D01*
X152220Y142031D01*
X151384Y141390D01*
X150743Y140554D01*
X150340Y139581D01*
X150203Y138537D01*
X150340Y137493D01*
X150542Y137005D01*
X149056Y135519D01*
X148116Y135612D01*
X147706Y136487D01*
X147731Y136520D01*
X148134Y137493D01*
X148206Y138037D01*
X140268D01*
X140340Y137493D01*
X140743Y136520D01*
X140829Y136407D01*
X140336Y135407D01*
X138138D01*
X137645Y136407D01*
X137731Y136520D01*
X138134Y137493D01*
X138271Y138537D01*
X138134Y139581D01*
X137731Y140554D01*
X137090Y141390D01*
X136254Y142031D01*
X135966Y142150D01*
Y145637D01*
X135850Y146222D01*
X135519Y146719D01*
X130419Y151819D01*
X129922Y152150D01*
X129337Y152266D01*
X122837D01*
X122252Y152150D01*
X121756Y151819D01*
X116956Y147019D01*
X116624Y146522D01*
X116508Y145937D01*
Y133637D01*
X116624Y133052D01*
X116956Y132556D01*
X119508Y130003D01*
Y125799D01*
X110956Y117247D01*
X110624Y116751D01*
X110587Y116563D01*
X109725Y116096D01*
X109515Y116077D01*
X108587Y116262D01*
X107659Y116077D01*
X106873Y115551D01*
X106347Y114765D01*
X106309Y114571D01*
X104856Y113119D01*
X104524Y112622D01*
X104408Y112037D01*
Y29370D01*
X99179Y24142D01*
X73639D01*
Y25998D01*
X73557Y26411D01*
X73323Y26762D01*
X72972Y26996D01*
X72559Y27078D01*
X70315D01*
X69902Y26996D01*
X69551Y26762D01*
X69493Y26674D01*
X69303Y26621D01*
X68571D01*
X68381Y26674D01*
X68323Y26762D01*
X67972Y26996D01*
X67559Y27078D01*
X65315D01*
X64902Y26996D01*
X64551Y26762D01*
X64493Y26674D01*
X64303Y26621D01*
X63571D01*
X63381Y26674D01*
X63323Y26762D01*
X62972Y26996D01*
X62559Y27078D01*
X61937D01*
Y22612D01*
Y18147D01*
X62559D01*
X62972Y18229D01*
X63323Y18463D01*
X63381Y18551D01*
X63434Y18566D01*
X64398Y18306D01*
Y16461D01*
X63965D01*
Y15729D01*
X62496D01*
Y16651D01*
X56953D01*
Y15876D01*
X55483D01*
Y16609D01*
X50890D01*
X50863Y16632D01*
X50515Y17368D01*
X51111Y18213D01*
X52409D01*
Y19455D01*
X54235D01*
Y19227D01*
X54317Y18813D01*
X54551Y18463D01*
X54902Y18229D01*
X55315Y18147D01*
X57559D01*
X57972Y18229D01*
X58323Y18463D01*
X58381Y18551D01*
X58571Y18604D01*
X59303D01*
X59493Y18551D01*
X59551Y18463D01*
X59902Y18229D01*
X60315Y18147D01*
X60937D01*
Y22612D01*
Y27078D01*
X60315D01*
X59902Y26996D01*
X59551Y26762D01*
X59493Y26674D01*
X59303Y26621D01*
X58571D01*
X58381Y26674D01*
X58323Y26762D01*
X57972Y26996D01*
X57559Y27078D01*
X55315D01*
X54902Y26996D01*
X54551Y26762D01*
X54317Y26411D01*
X54235Y25998D01*
Y22514D01*
X53116D01*
X52409Y23221D01*
Y23756D01*
X52409Y24756D01*
Y29661D01*
X50180D01*
X49645Y30661D01*
X49677Y30709D01*
X49861Y31637D01*
X49677Y32565D01*
X49151Y33351D01*
X48365Y33877D01*
X47437Y34062D01*
X46509Y33877D01*
X45723Y33351D01*
X45197Y32565D01*
X45013Y31637D01*
X45197Y30709D01*
X45723Y29923D01*
X45908Y29799D01*
Y29090D01*
X46024Y28504D01*
X46356Y28008D01*
X46865Y27498D01*
Y24756D01*
X46865Y24118D01*
X46865Y23118D01*
Y18257D01*
X36037D01*
X35647Y18179D01*
X35316Y17958D01*
X35095Y17627D01*
X35017Y17237D01*
Y7563D01*
X34093Y7181D01*
X29649Y11625D01*
X30081Y12132D01*
X31135Y13851D01*
X31907Y15714D01*
X32377Y17675D01*
X32536Y19685D01*
X32377Y21695D01*
X31907Y23656D01*
X31135Y25519D01*
X30081Y27239D01*
X28772Y28772D01*
X27239Y30081D01*
X25519Y31135D01*
X23656Y31907D01*
X21695Y32377D01*
X19685Y32536D01*
X17675Y32377D01*
X15714Y31907D01*
X13851Y31135D01*
X12132Y30081D01*
X11625Y29649D01*
X6537Y34737D01*
Y136717D01*
X17330D01*
X17580Y135717D01*
X17462Y135654D01*
X16351Y134742D01*
X15439Y133631D01*
X14761Y132363D01*
X14343Y130987D01*
X14202Y129556D01*
X14343Y128125D01*
X14761Y126749D01*
X15439Y125481D01*
X16351Y124370D01*
X17462Y123458D01*
X18730Y122780D01*
X20106Y122362D01*
X21537Y122221D01*
X22968Y122362D01*
X24344Y122780D01*
X25612Y123458D01*
X26723Y124370D01*
X27635Y125481D01*
X28313Y126749D01*
X28731Y128125D01*
X28872Y129556D01*
X28731Y130987D01*
X28313Y132363D01*
X27635Y133631D01*
X26723Y134742D01*
X25612Y135654D01*
X25494Y135717D01*
X25744Y136717D01*
X34137D01*
X34527Y136795D01*
X34858Y137016D01*
X35079Y137347D01*
X35157Y137737D01*
Y146613D01*
X36426D01*
Y149384D01*
X36926D01*
Y149884D01*
X39698D01*
Y150817D01*
X47137D01*
X47527Y150895D01*
X47858Y151116D01*
X48658Y151916D01*
X48879Y152247D01*
X48957Y152637D01*
Y158037D01*
X48879Y158427D01*
X48658Y158758D01*
X48327Y158979D01*
X47937Y159057D01*
X20504D01*
Y164161D01*
X20064D01*
X19728Y165161D01*
X20198Y165631D01*
X21356Y165631D01*
X22356Y165631D01*
X24384D01*
Y168403D01*
Y171174D01*
X22356D01*
X21718Y171174D01*
X20718Y171174D01*
X15025D01*
Y165631D01*
X16432D01*
Y164161D01*
X14960D01*
Y159057D01*
X6537D01*
Y188837D01*
X14601Y196901D01*
X15714Y196440D01*
X17675Y195969D01*
X19685Y195811D01*
X21695Y195969D01*
X23656Y196440D01*
X25519Y197211D01*
X27239Y198265D01*
X28772Y199575D01*
X30081Y201108D01*
X31135Y202827D01*
X31907Y204690D01*
X32377Y206651D01*
X32536Y208661D01*
X32377Y210672D01*
X31907Y212632D01*
X31446Y213746D01*
X40137Y222437D01*
X292037Y222237D01*
D02*
G37*
G36*
X47937Y152637D02*
X47137Y151837D01*
X39698D01*
Y152156D01*
X34154D01*
Y151837D01*
X34137D01*
Y137737D01*
X6537D01*
X6537Y158037D01*
X47937D01*
Y152637D01*
D02*
G37*
G36*
X180879Y154958D02*
Y153686D01*
X180996Y153101D01*
X181327Y152604D01*
X182323Y151609D01*
Y148228D01*
X187228D01*
X187866Y148228D01*
X188763Y148228D01*
X189471Y147521D01*
Y137539D01*
X185461Y133529D01*
X174507D01*
X174441Y134529D01*
X175281Y134640D01*
X176254Y135043D01*
X177090Y135684D01*
X177731Y136520D01*
X178134Y137493D01*
X178271Y138537D01*
X178134Y139581D01*
X177731Y140554D01*
X177090Y141390D01*
X176254Y142031D01*
X175281Y142434D01*
X174237Y142571D01*
X173193Y142434D01*
X172220Y142031D01*
X171384Y141390D01*
X170743Y140554D01*
X170340Y139581D01*
X170203Y138537D01*
X170340Y137493D01*
X170743Y136520D01*
X171384Y135684D01*
X172220Y135043D01*
X173193Y134640D01*
X174033Y134529D01*
X173967Y133529D01*
X164507D01*
X164441Y134529D01*
X165281Y134640D01*
X166254Y135043D01*
X167090Y135684D01*
X167731Y136520D01*
X168134Y137493D01*
X168272Y138537D01*
X168134Y139581D01*
X167731Y140554D01*
X167090Y141390D01*
X166254Y142031D01*
X165969Y142149D01*
Y144401D01*
X166154Y144525D01*
X166679Y145311D01*
X166864Y146239D01*
X166679Y147167D01*
X166638Y147228D01*
X167173Y148228D01*
X171181D01*
X171819Y148228D01*
X172819Y148228D01*
X174453D01*
Y151000D01*
Y153772D01*
X172563Y153772D01*
X172006Y154126D01*
X171836Y154471D01*
X172183Y155471D01*
X180367D01*
X180879Y154958D01*
D02*
G37*
G36*
X56953Y11107D02*
Y10745D01*
X56953D01*
Y8474D01*
X59724D01*
Y7474D01*
X56953D01*
Y5637D01*
X50157D01*
X50157Y11065D01*
X55483D01*
Y11218D01*
X56483Y11561D01*
X56953Y11107D01*
D02*
G37*
G36*
X49137Y4537D02*
X36037D01*
Y17237D01*
X49137D01*
X49137Y4537D01*
D02*
G37*
%LPC*%
G36*
X82216Y212220D02*
X81030Y212063D01*
X79925Y211606D01*
X78976Y210877D01*
X78247Y209928D01*
X78037Y209421D01*
X76195D01*
X75512Y209285D01*
X74933Y208899D01*
X74066Y208032D01*
X73199Y208899D01*
X72620Y209285D01*
X71938Y209421D01*
X70095D01*
X69885Y209928D01*
X69157Y210877D01*
X68208Y211606D01*
X67103Y212063D01*
X65917Y212220D01*
X64731Y212063D01*
X63626Y211606D01*
X62676Y210877D01*
X61948Y209928D01*
X61490Y208823D01*
X61334Y207637D01*
X61490Y206451D01*
X61948Y205346D01*
X62676Y204397D01*
X63626Y203668D01*
X64731Y203211D01*
X65917Y203054D01*
X67103Y203211D01*
X68208Y203668D01*
X69157Y204397D01*
X69885Y205346D01*
X70095Y205853D01*
X71032D01*
Y193474D01*
X70032Y193275D01*
X69885Y193629D01*
X69157Y194578D01*
X68208Y195306D01*
X67103Y195764D01*
X66417Y195854D01*
Y191338D01*
Y186821D01*
X67103Y186911D01*
X68208Y187369D01*
X69157Y188098D01*
X69885Y189047D01*
X70032Y189401D01*
X71032Y189202D01*
Y176355D01*
X63625Y168948D01*
X62701Y169331D01*
Y170946D01*
X63077Y171509D01*
X63261Y172437D01*
X63077Y173365D01*
X62551Y174151D01*
X61765Y174677D01*
X60837Y174862D01*
X59909Y174677D01*
X59609Y174476D01*
X53965D01*
X53665Y174677D01*
X52737Y174862D01*
X51809Y174677D01*
X51509Y174476D01*
X51390D01*
X51390Y174476D01*
X50609Y174321D01*
X49948Y173879D01*
X47841Y171772D01*
X45181Y171772D01*
X44181Y171772D01*
X42547D01*
Y169000D01*
X41547D01*
Y171772D01*
X39276D01*
Y171744D01*
X37037D01*
Y168973D01*
X36537D01*
Y168473D01*
X33765D01*
Y166839D01*
X33765Y166201D01*
X33765Y165201D01*
Y160295D01*
X39309D01*
Y161986D01*
X41248D01*
X41343Y161843D01*
X41732Y161584D01*
X42190Y161493D01*
X47235D01*
X47693Y161584D01*
X48082Y161843D01*
X48341Y162232D01*
X48432Y162690D01*
Y164222D01*
X49433Y164637D01*
X50229Y163840D01*
Y163839D01*
X50245Y163757D01*
Y162690D01*
X50336Y162232D01*
X50595Y161843D01*
Y161771D01*
X50336Y161382D01*
X50245Y160924D01*
Y160437D01*
X53965D01*
Y159437D01*
X50245D01*
Y158950D01*
X50336Y158492D01*
X50595Y158103D01*
Y158031D01*
X50336Y157642D01*
X50245Y157184D01*
Y155210D01*
X50336Y154752D01*
X50595Y154363D01*
X50984Y154104D01*
X51442Y154012D01*
X56487D01*
X56945Y154104D01*
X57334Y154363D01*
X57579Y154730D01*
X57673Y154793D01*
X58168Y154892D01*
X58830Y155334D01*
X60703Y157207D01*
X61627Y156825D01*
Y139374D01*
X61596Y139327D01*
X61460Y138644D01*
Y111673D01*
X61596Y110990D01*
X61983Y110411D01*
X67119Y105275D01*
X67698Y104888D01*
X68381Y104752D01*
X69753D01*
Y103816D01*
X69247Y103606D01*
X68297Y102877D01*
X67569Y101928D01*
X67111Y100823D01*
X66955Y99637D01*
X67111Y98451D01*
X67569Y97346D01*
X68297Y96397D01*
X69247Y95668D01*
X70352Y95211D01*
X71538Y95055D01*
X72724Y95211D01*
X73829Y95668D01*
X74596Y96257D01*
X75244Y96069D01*
X75596Y95820D01*
Y91855D01*
X71472Y87731D01*
X64680D01*
X63997Y87595D01*
X63419Y87208D01*
X63419Y87208D01*
X61075Y84865D01*
X60689Y84286D01*
X60553Y83604D01*
Y81285D01*
X60009Y81177D01*
X59223Y80651D01*
X58697Y79865D01*
X58513Y78937D01*
X58697Y78009D01*
X59223Y77223D01*
X60009Y76697D01*
X60903Y76519D01*
Y62627D01*
X59197Y60921D01*
X53687D01*
Y64665D01*
X41845D01*
Y53610D01*
X53687D01*
Y57353D01*
X59936D01*
X60903Y56567D01*
Y49125D01*
X60315D01*
X59902Y49043D01*
X59551Y48809D01*
X59493Y48721D01*
X59303Y48668D01*
X58571D01*
X58381Y48721D01*
X58323Y48809D01*
X57972Y49043D01*
X57559Y49125D01*
X55315D01*
X54902Y49043D01*
X54551Y48809D01*
X54317Y48459D01*
X54235Y48045D01*
Y47614D01*
X52495D01*
Y49152D01*
X45377D01*
Y43018D01*
X52495D01*
Y44555D01*
X54235D01*
Y41274D01*
X54317Y40861D01*
X54551Y40510D01*
X54902Y40276D01*
X55315Y40194D01*
X57559D01*
X57972Y40276D01*
X58323Y40510D01*
X58381Y40598D01*
X58571Y40652D01*
X59303D01*
X59493Y40598D01*
X59551Y40510D01*
X59902Y40276D01*
X60315Y40194D01*
X62559D01*
X62972Y40276D01*
X63323Y40510D01*
X63381Y40598D01*
X63571Y40652D01*
X64303D01*
X64493Y40598D01*
X64551Y40510D01*
X64902Y40276D01*
X65315Y40194D01*
X67559D01*
X67972Y40276D01*
X68323Y40510D01*
X68381Y40598D01*
X68571Y40652D01*
X69303D01*
X69493Y40598D01*
X69551Y40510D01*
X69902Y40276D01*
X70315Y40194D01*
X71476D01*
X74704Y36966D01*
X75200Y36634D01*
X75785Y36518D01*
X76255D01*
Y34004D01*
X81011D01*
Y39547D01*
X77903D01*
X77755Y39577D01*
X76419D01*
X73639Y42357D01*
Y48045D01*
X73557Y48459D01*
X73323Y48809D01*
X72972Y49043D01*
X72559Y49125D01*
X70315D01*
X69902Y49043D01*
X69551Y48809D01*
X69493Y48721D01*
X69303Y48668D01*
X68571D01*
X68381Y48721D01*
X68323Y48809D01*
X67972Y49043D01*
X67559Y49125D01*
X66971D01*
Y56309D01*
X67255Y56555D01*
X67971Y56945D01*
X68437Y56853D01*
X74381D01*
Y53110D01*
X86223D01*
Y64165D01*
X74381D01*
Y60421D01*
X69176D01*
X66971Y62626D01*
Y76859D01*
X67165Y76897D01*
X67951Y77423D01*
X68477Y78209D01*
X68661Y79137D01*
X68477Y80065D01*
X68078Y80663D01*
X68298Y81345D01*
X68521Y81662D01*
X73247D01*
X73930Y81798D01*
X74509Y82185D01*
X81142Y88819D01*
X81529Y89398D01*
X81665Y90081D01*
X81665Y90081D01*
Y103850D01*
X81529Y104533D01*
X81142Y105112D01*
X75956Y110298D01*
X75378Y110685D01*
X74695Y110821D01*
X73322D01*
Y111758D01*
X73829Y111968D01*
X74778Y112696D01*
X75506Y113645D01*
X75964Y114750D01*
X76120Y115936D01*
X75964Y117122D01*
X75506Y118228D01*
X74778Y119176D01*
X73829Y119905D01*
X72724Y120363D01*
X71538Y120519D01*
X70352Y120363D01*
X69247Y119905D01*
X68529Y119354D01*
X67755Y119616D01*
X67529Y119799D01*
Y137046D01*
X67560Y137093D01*
X67696Y137776D01*
Y140489D01*
X68696Y141198D01*
X69057Y141126D01*
X69984Y141311D01*
X70389Y141581D01*
X73922D01*
X74087Y141548D01*
X79132D01*
X79590Y141639D01*
X79979Y141899D01*
X80238Y142287D01*
X80329Y142745D01*
Y144720D01*
X80238Y145178D01*
X79979Y145566D01*
Y145639D01*
X80238Y146027D01*
X80329Y146485D01*
Y146973D01*
X76609D01*
Y147973D01*
X80329D01*
Y148460D01*
X80238Y148918D01*
X79979Y149306D01*
Y149379D01*
X80238Y149767D01*
X80329Y150226D01*
Y152200D01*
X80238Y152658D01*
X79979Y153047D01*
X79590Y153306D01*
X79132Y153397D01*
X77179D01*
X76772Y154228D01*
Y155750D01*
X77713Y155893D01*
X77772Y155893D01*
X79984D01*
Y158665D01*
Y161436D01*
X77772D01*
X77713Y161436D01*
X76772Y161579D01*
Y162406D01*
X74000D01*
X71228D01*
Y160772D01*
X71228Y160134D01*
X71228Y159134D01*
Y157112D01*
X68620Y154503D01*
X67696Y154886D01*
Y164437D01*
X76578Y173319D01*
X76578Y173319D01*
X76965Y173898D01*
X77017Y174162D01*
X78017Y174064D01*
Y167176D01*
X78025Y167139D01*
X78020Y167101D01*
X78063Y166945D01*
X78095Y166786D01*
X78116Y166754D01*
X78127Y166717D01*
X78226Y166590D01*
X78316Y166455D01*
X78348Y166434D01*
X78372Y166404D01*
X78512Y166324D01*
X78647Y166234D01*
X78684Y166227D01*
X78718Y166208D01*
X79703Y165883D01*
X79766Y165875D01*
X79824Y165851D01*
X79962D01*
X80098Y165835D01*
X80159Y165851D01*
X80221D01*
X80349Y165904D01*
X80482Y165941D01*
X80531Y165980D01*
X80589Y166004D01*
X81207Y166417D01*
X81737Y166522D01*
X82267Y166417D01*
X82716Y166116D01*
X83017Y165667D01*
X83122Y165137D01*
X83017Y164607D01*
X82716Y164158D01*
X82594Y164076D01*
X82481Y163963D01*
X82359Y163859D01*
X81736Y163068D01*
X81673Y162943D01*
X81595Y162827D01*
X81583Y162768D01*
X81556Y162714D01*
X81545Y162574D01*
X81517Y162437D01*
Y161436D01*
X80984D01*
Y158665D01*
Y155893D01*
X81517D01*
Y148937D01*
X81595Y148547D01*
X81816Y148216D01*
X82147Y147995D01*
X82537Y147917D01*
X96737D01*
X97127Y147995D01*
X97458Y148216D01*
X97679Y148547D01*
X97757Y148937D01*
Y158115D01*
X98058Y158416D01*
X98279Y158747D01*
X98357Y159137D01*
Y165237D01*
X98279Y165627D01*
X98058Y165958D01*
X97956Y166026D01*
X98205Y167026D01*
X101158D01*
X101865Y166319D01*
X101865Y165372D01*
X101865Y164372D01*
Y162344D01*
X104637D01*
X107409D01*
Y164372D01*
X107409Y165009D01*
X107409Y166009D01*
Y171702D01*
X103213D01*
X103050Y171808D01*
X102457Y172637D01*
Y185837D01*
X102379Y186227D01*
X102158Y186558D01*
X101827Y186779D01*
X101437Y186857D01*
X85482D01*
X85142Y187857D01*
X85456Y188098D01*
X86185Y189047D01*
X86642Y190152D01*
X86799Y191338D01*
X86642Y192524D01*
X86185Y193629D01*
X85456Y194578D01*
X84507Y195306D01*
X83402Y195764D01*
X82216Y195920D01*
X81030Y195764D01*
X79925Y195306D01*
X78976Y194578D01*
X78247Y193629D01*
X78101Y193275D01*
X77101Y193474D01*
Y205853D01*
X78037D01*
X78247Y205346D01*
X78976Y204397D01*
X79925Y203668D01*
X81030Y203211D01*
X82216Y203054D01*
X83402Y203211D01*
X84507Y203668D01*
X85456Y204397D01*
X86185Y205346D01*
X86642Y206451D01*
X86799Y207637D01*
X86642Y208823D01*
X86185Y209928D01*
X85456Y210877D01*
X84507Y211606D01*
X83402Y212063D01*
X82216Y212220D01*
D02*
G37*
G36*
X163737Y213015D02*
X162306Y212874D01*
X160930Y212456D01*
X159662Y211779D01*
X158550Y210866D01*
X157638Y209755D01*
X156960Y208487D01*
X156543Y207111D01*
X156402Y205680D01*
X156543Y204249D01*
X156960Y202873D01*
X157638Y201605D01*
X158550Y200494D01*
X159662Y199582D01*
X160930Y198904D01*
X162306Y198487D01*
X163737Y198346D01*
X165168Y198487D01*
X166543Y198904D01*
X167812Y199582D01*
X168923Y200494D01*
X169835Y201605D01*
X170513Y202873D01*
X170930Y204249D01*
X171071Y205680D01*
X170930Y207111D01*
X170513Y208487D01*
X169835Y209755D01*
X168923Y210866D01*
X167812Y211779D01*
X166543Y212456D01*
X165168Y212874D01*
X163737Y213015D01*
D02*
G37*
G36*
X231875Y213008D02*
X230444Y212867D01*
X229068Y212449D01*
X227800Y211772D01*
X226689Y210859D01*
X225777Y209748D01*
X225099Y208480D01*
X224681Y207104D01*
X224540Y205673D01*
X224681Y204242D01*
X225099Y202866D01*
X225777Y201598D01*
X226689Y200487D01*
X227800Y199575D01*
X229068Y198897D01*
X230444Y198480D01*
X231875Y198339D01*
X233306Y198480D01*
X234682Y198897D01*
X235950Y199575D01*
X237061Y200487D01*
X237973Y201598D01*
X238651Y202866D01*
X239069Y204242D01*
X239210Y205673D01*
X239069Y207104D01*
X238651Y208480D01*
X237973Y209748D01*
X237061Y210859D01*
X235950Y211772D01*
X234682Y212449D01*
X233306Y212867D01*
X231875Y213008D01*
D02*
G37*
G36*
X259057Y205106D02*
X257871Y204950D01*
X256766Y204492D01*
X255817Y203764D01*
X255089Y202815D01*
X254631Y201710D01*
X254475Y200524D01*
X254631Y199338D01*
X255089Y198232D01*
X255817Y197283D01*
X256766Y196555D01*
X257871Y196097D01*
X259057Y195941D01*
X260243Y196097D01*
X261348Y196555D01*
X262297Y197283D01*
X263026Y198232D01*
X263484Y199338D01*
X263640Y200524D01*
X263484Y201710D01*
X263026Y202815D01*
X262297Y203764D01*
X261348Y204492D01*
X260243Y204950D01*
X259057Y205106D01*
D02*
G37*
G36*
X65417Y195854D02*
X64731Y195764D01*
X63626Y195306D01*
X62676Y194578D01*
X61948Y193629D01*
X61490Y192524D01*
X61400Y191838D01*
X65417D01*
Y195854D01*
D02*
G37*
G36*
X146717Y193898D02*
Y189881D01*
X150734D01*
X150643Y190567D01*
X150186Y191672D01*
X149457Y192621D01*
X148508Y193350D01*
X147403Y193807D01*
X146717Y193898D01*
D02*
G37*
G36*
X145717D02*
X145031Y193807D01*
X143926Y193350D01*
X142977Y192621D01*
X142248Y191672D01*
X141791Y190567D01*
X141700Y189881D01*
X145717D01*
Y193898D01*
D02*
G37*
G36*
X214855Y193891D02*
Y189874D01*
X218872D01*
X218782Y190560D01*
X218324Y191665D01*
X217596Y192614D01*
X216647Y193343D01*
X215541Y193800D01*
X214855Y193891D01*
D02*
G37*
G36*
X213855D02*
X213169Y193800D01*
X212064Y193343D01*
X211115Y192614D01*
X210387Y191665D01*
X209929Y190560D01*
X209839Y189874D01*
X213855D01*
Y193891D01*
D02*
G37*
G36*
X65417Y190838D02*
X61400D01*
X61490Y190152D01*
X61948Y189047D01*
X62676Y188098D01*
X63626Y187369D01*
X64731Y186911D01*
X65417Y186821D01*
Y190838D01*
D02*
G37*
G36*
X150734Y188881D02*
X146717D01*
Y184864D01*
X147403Y184955D01*
X148508Y185412D01*
X149457Y186141D01*
X150186Y187090D01*
X150643Y188195D01*
X150734Y188881D01*
D02*
G37*
G36*
X145717D02*
X141700D01*
X141791Y188195D01*
X142248Y187090D01*
X142977Y186141D01*
X143926Y185412D01*
X145031Y184955D01*
X145717Y184864D01*
Y188881D01*
D02*
G37*
G36*
X218872Y188874D02*
X214855D01*
Y184857D01*
X215541Y184948D01*
X216647Y185405D01*
X217596Y186134D01*
X218324Y187083D01*
X218782Y188188D01*
X218872Y188874D01*
D02*
G37*
G36*
X213855D02*
X209839D01*
X209929Y188188D01*
X210387Y187083D01*
X211115Y186134D01*
X212064Y185405D01*
X213169Y184948D01*
X213855Y184857D01*
Y188874D01*
D02*
G37*
G36*
X129918Y193963D02*
X128732Y193807D01*
X127627Y193350D01*
X126677Y192621D01*
X125949Y191672D01*
X125491Y190567D01*
X125335Y189381D01*
X125491Y188195D01*
X125949Y187090D01*
X126677Y186141D01*
X127627Y185412D01*
X128732Y184955D01*
X129918Y184798D01*
X131104Y184955D01*
X132209Y185412D01*
X133158Y186141D01*
X133886Y187090D01*
X134344Y188195D01*
X134500Y189381D01*
X134344Y190567D01*
X133886Y191672D01*
X133158Y192621D01*
X132209Y193350D01*
X131104Y193807D01*
X129918Y193963D01*
D02*
G37*
G36*
X214355Y210256D02*
X213169Y210100D01*
X212064Y209642D01*
X211115Y208913D01*
X210387Y207964D01*
X209929Y206859D01*
X209773Y205673D01*
X209929Y204487D01*
X210387Y203382D01*
X211115Y202433D01*
X212064Y201705D01*
X213169Y201247D01*
X214355Y201091D01*
X214948Y201169D01*
X229961Y186155D01*
Y171928D01*
X229426Y171527D01*
X228961Y171322D01*
X228137Y171486D01*
X225861D01*
Y171709D01*
X220956D01*
X220318Y171709D01*
X219318Y171709D01*
X214413D01*
Y171566D01*
X209929D01*
Y171788D01*
X205024D01*
X204386Y171788D01*
X203386Y171788D01*
X202085D01*
X197789Y176084D01*
Y182274D01*
X197595Y183249D01*
X197160Y183901D01*
X197381Y184473D01*
X197694Y184839D01*
X198056Y184792D01*
X199242Y184948D01*
X200347Y185405D01*
X201296Y186134D01*
X202025Y187083D01*
X202483Y188188D01*
X202639Y189374D01*
X202483Y190560D01*
X202025Y191665D01*
X201296Y192614D01*
X200347Y193343D01*
X199242Y193800D01*
X198056Y193956D01*
X196870Y193800D01*
X195765Y193343D01*
X194816Y192614D01*
X194088Y191665D01*
X194086Y191662D01*
X193086Y191860D01*
Y194481D01*
X199077Y200472D01*
X199629Y201299D01*
X199653Y201417D01*
X200347Y201705D01*
X201296Y202433D01*
X202025Y203382D01*
X202483Y204487D01*
X202639Y205673D01*
X202483Y206859D01*
X202025Y207964D01*
X201296Y208913D01*
X200347Y209642D01*
X199242Y210100D01*
X198056Y210256D01*
X196870Y210100D01*
X195765Y209642D01*
X194816Y208913D01*
X194088Y207964D01*
X193630Y206859D01*
X193474Y205673D01*
X193630Y204487D01*
X194088Y203382D01*
X194387Y202992D01*
X188735Y197339D01*
X188182Y196512D01*
X187988Y195537D01*
Y186977D01*
X188182Y186002D01*
X188735Y185175D01*
X192691Y181218D01*
Y175029D01*
X192885Y174053D01*
X193438Y173226D01*
X198480Y168184D01*
Y166245D01*
X203386D01*
X204024Y166245D01*
X204608Y165487D01*
Y164038D01*
X204802Y163063D01*
X205355Y162236D01*
X206819Y160772D01*
X206405Y159772D01*
X205405D01*
Y157500D01*
X207677D01*
Y158500D01*
X208677Y158914D01*
X214113Y153478D01*
Y151865D01*
X219018D01*
X219656Y151865D01*
X220656Y151865D01*
X225561D01*
Y152095D01*
X227837D01*
X228813Y152289D01*
X229639Y152841D01*
X230192Y153668D01*
X230386Y154644D01*
X230192Y155619D01*
X229639Y156446D01*
X228813Y156999D01*
X227837Y157193D01*
X225561D01*
Y157409D01*
X220656D01*
X220018Y157409D01*
X219018Y157409D01*
X217433D01*
X216894Y158068D01*
X217280Y158965D01*
X219756Y158965D01*
X220756Y158965D01*
X225661D01*
Y159221D01*
X227984D01*
X228960Y159415D01*
X229787Y159967D01*
X230339Y160794D01*
X230434Y161268D01*
X231507Y161609D01*
X231558Y161558D01*
X232220Y161116D01*
X233000Y160961D01*
X233228Y160732D01*
X233228Y160228D01*
X233228Y159228D01*
Y154323D01*
X233961D01*
Y152724D01*
X233228D01*
Y147819D01*
X233228Y147181D01*
X233228Y146181D01*
Y141752D01*
X233228Y141276D01*
X233228D01*
X233276Y140772D01*
X233276D01*
Y135228D01*
X233276D01*
X233228Y134772D01*
X233228D01*
X233228Y134248D01*
Y129228D01*
X238134D01*
X238772Y129228D01*
X239772Y129228D01*
X241406D01*
Y132000D01*
X241905D01*
Y132500D01*
X244708D01*
X245228Y133228D01*
X245677Y133228D01*
X250134D01*
X250772Y133228D01*
X251772Y133228D01*
X253405D01*
Y136000D01*
X254405D01*
Y133228D01*
X256471D01*
Y128838D01*
X256286Y128714D01*
X255760Y127928D01*
X255681Y127529D01*
X223599D01*
X223558Y127573D01*
X223156Y128529D01*
X223477Y129009D01*
X223661Y129937D01*
X223477Y130865D01*
X222951Y131651D01*
X222766Y131775D01*
Y135237D01*
X222650Y135822D01*
X222318Y136319D01*
X221491Y137146D01*
X221566Y137526D01*
X221382Y138453D01*
X220856Y139240D01*
X220070Y139766D01*
X219142Y139950D01*
X218214Y139766D01*
X217427Y139240D01*
X216902Y138453D01*
X216717Y137526D01*
X216902Y136598D01*
X217427Y135811D01*
X218214Y135286D01*
X219142Y135101D01*
X219708Y134341D01*
Y131775D01*
X219523Y131651D01*
X218997Y130865D01*
X218812Y129937D01*
X218997Y129009D01*
X219318Y128529D01*
X218916Y127573D01*
X218875Y127529D01*
X165105D01*
Y128239D01*
X157305D01*
Y124839D01*
Y122280D01*
Y119721D01*
Y117162D01*
Y114603D01*
Y112044D01*
Y109485D01*
Y106926D01*
Y104367D01*
Y101808D01*
X159675D01*
Y99506D01*
X158976Y98795D01*
X158339Y98795D01*
X156705D01*
Y96024D01*
Y93252D01*
X158339D01*
X158976Y93252D01*
X159976Y93252D01*
X164882D01*
Y98795D01*
X162734D01*
Y101808D01*
X164917D01*
X165794Y101093D01*
X165780Y101024D01*
X165965Y100096D01*
X166490Y99309D01*
X167277Y98784D01*
X168205Y98599D01*
X169133Y98784D01*
X169496Y99027D01*
X170496Y98510D01*
Y96831D01*
X176705D01*
Y100087D01*
X171463D01*
X170629Y101024D01*
X170617Y101087D01*
X170445Y101951D01*
X169919Y102738D01*
X169619Y102938D01*
X169551Y103719D01*
X169750Y104194D01*
X169763Y104205D01*
X169919Y104309D01*
X170445Y105096D01*
X170617Y105961D01*
X183433D01*
X183913Y105961D01*
X184433Y105176D01*
Y104618D01*
X187205D01*
X189976D01*
Y106252D01*
X189976Y106890D01*
X189976Y107890D01*
Y112795D01*
X189976D01*
X189417Y113795D01*
X189529Y114356D01*
X189375Y115129D01*
X189598Y115620D01*
X189982Y116129D01*
X192471D01*
Y90772D01*
X189866D01*
X189228Y90772D01*
X188228Y90772D01*
X183323D01*
Y88258D01*
X182776D01*
X182190Y88141D01*
X181694Y87810D01*
X176609Y82724D01*
X173228D01*
Y81529D01*
X171772D01*
Y82772D01*
X166228D01*
Y77866D01*
X166228Y77325D01*
X165479Y76842D01*
X164772Y77277D01*
X164772Y77819D01*
Y82724D01*
X161975D01*
X161728Y82773D01*
X158718D01*
X157875Y83616D01*
X157048Y84168D01*
X156073Y84362D01*
X149479D01*
X148503Y84168D01*
X147677Y83616D01*
X147082Y83021D01*
X144718Y83021D01*
X143718Y83021D01*
X138813D01*
Y81083D01*
X136350Y78621D01*
X135798Y77794D01*
X135739Y77498D01*
X135319Y76561D01*
X134392Y76377D01*
X133605Y75851D01*
X133079Y75065D01*
X132895Y74137D01*
X133079Y73209D01*
X133299Y72881D01*
X132808Y72554D01*
X132255Y71727D01*
X132061Y70751D01*
Y69560D01*
X131476Y68802D01*
X125933D01*
Y63259D01*
X127790D01*
Y58119D01*
X127984Y57143D01*
X128536Y56317D01*
X133698Y51155D01*
X133368Y50487D01*
Y45673D01*
Y41157D01*
X134054Y41247D01*
X135159Y41705D01*
X136109Y42433D01*
X136837Y43382D01*
X137944Y43442D01*
X138077Y43242D01*
X144461Y36859D01*
X145288Y36307D01*
X146263Y36112D01*
X147569D01*
X147834Y35848D01*
Y33739D01*
X146876Y33343D01*
X145927Y32614D01*
X145199Y31665D01*
X144741Y30560D01*
X144585Y29374D01*
X144741Y28188D01*
X145199Y27083D01*
X145927Y26134D01*
X146876Y25405D01*
X147981Y24948D01*
X149167Y24791D01*
X150353Y24948D01*
X151168Y25285D01*
X151735Y24437D01*
X150360Y23063D01*
X142063D01*
X137190Y27936D01*
X137294Y28188D01*
X137451Y29374D01*
X137294Y30560D01*
X136837Y31665D01*
X136109Y32614D01*
X135159Y33343D01*
X134054Y33800D01*
X132868Y33957D01*
X131682Y33800D01*
X130577Y33343D01*
X129628Y32614D01*
X128900Y31665D01*
X128442Y30560D01*
X128286Y29374D01*
X128442Y28188D01*
X128900Y27083D01*
X129628Y26134D01*
X130577Y25405D01*
X131682Y24948D01*
X132868Y24791D01*
X134054Y24948D01*
X134306Y25052D01*
X139777Y19582D01*
X139777Y19582D01*
X140438Y19140D01*
X141218Y18984D01*
X151205D01*
X151985Y19140D01*
X152647Y19582D01*
X170542Y37477D01*
X170984Y38138D01*
X171139Y38919D01*
Y61521D01*
X171846Y62228D01*
X172866Y62228D01*
X177772D01*
Y63371D01*
X180228D01*
Y63276D01*
X185772D01*
X185772Y68437D01*
X186126Y68994D01*
X186602Y69228D01*
X191181D01*
X191819Y69228D01*
X192819Y69228D01*
X194453D01*
Y72000D01*
Y74772D01*
X192819D01*
X191535Y74772D01*
X190724Y75228D01*
X190724Y75772D01*
Y78609D01*
X191315Y79199D01*
X192776D01*
X192923Y79228D01*
X196181D01*
X196819Y79228D01*
X197819Y79228D01*
X199453D01*
Y82000D01*
X199953D01*
Y82500D01*
X202724D01*
Y84772D01*
X201488D01*
X200677Y85228D01*
X200677Y85772D01*
Y90772D01*
X195529D01*
Y117073D01*
X195450Y117471D01*
X195808Y118145D01*
X196073Y118471D01*
X244319D01*
X246471Y116319D01*
Y102479D01*
X245763Y101772D01*
X245228D01*
X244228Y101772D01*
X239323D01*
Y97504D01*
X238677Y96772D01*
X238548Y96772D01*
X233772D01*
X233134Y96772D01*
X232134Y96772D01*
X230500D01*
Y94000D01*
Y91228D01*
X232134D01*
X232772Y91228D01*
X233772Y91228D01*
X237969D01*
X238662Y90249D01*
X238525Y89834D01*
X238398Y89772D01*
X233819D01*
X233181Y89772D01*
X232181Y89772D01*
X227276D01*
Y86975D01*
X227227Y86728D01*
Y83586D01*
X224590D01*
X223614Y83392D01*
X223490Y83309D01*
X221318Y83309D01*
X220318Y83309D01*
X215413D01*
Y82814D01*
X215265D01*
X214290Y82620D01*
X213463Y82068D01*
X206855Y75460D01*
X206302Y74633D01*
X206108Y73658D01*
Y69553D01*
X205524Y68795D01*
X204886Y68795D01*
X199980D01*
Y63252D01*
X200203D01*
Y56476D01*
X200397Y55501D01*
X200950Y54674D01*
X206829Y48795D01*
Y37015D01*
X207023Y36039D01*
X207575Y35212D01*
X212700Y30088D01*
X212586Y29224D01*
X212742Y28038D01*
X213200Y26933D01*
X213928Y25984D01*
X214877Y25256D01*
X215982Y24798D01*
X217168Y24642D01*
X218354Y24798D01*
X219460Y25256D01*
X220409Y25984D01*
X221137Y26933D01*
X221595Y28038D01*
X221751Y29224D01*
X221595Y30410D01*
X221137Y31516D01*
X220409Y32465D01*
X219460Y33193D01*
X218354Y33651D01*
X217168Y33807D01*
X216304Y33693D01*
X211927Y38071D01*
Y43692D01*
X212927Y43891D01*
X213200Y43232D01*
X213928Y42283D01*
X214877Y41555D01*
X215982Y41097D01*
X217168Y40941D01*
X218354Y41097D01*
X219460Y41555D01*
X220409Y42283D01*
X221137Y43232D01*
X221595Y44338D01*
X221751Y45524D01*
X221595Y46710D01*
X221137Y47815D01*
X220409Y48764D01*
X219460Y49492D01*
X218354Y49950D01*
X217168Y50106D01*
X215982Y49950D01*
X214877Y49492D01*
X213928Y48764D01*
X213200Y47815D01*
X212927Y47156D01*
X211927Y47355D01*
Y49850D01*
X211733Y50826D01*
X211180Y51653D01*
X205301Y57532D01*
Y62494D01*
X205886Y63252D01*
X206524Y63252D01*
X211429D01*
Y63475D01*
X215613D01*
Y63465D01*
X220518D01*
X221156Y63465D01*
X222156Y63465D01*
X223819D01*
X225550Y61735D01*
X226377Y61182D01*
X227352Y60988D01*
X231237D01*
X232212Y61182D01*
X233039Y61735D01*
X233592Y62562D01*
X233786Y63537D01*
X233592Y64512D01*
X233039Y65339D01*
X232212Y65892D01*
X231237Y66086D01*
X228408D01*
X227061Y67432D01*
Y69009D01*
X222156D01*
X221518Y69009D01*
X220518Y69009D01*
X217289D01*
X217201Y69243D01*
X217123Y70009D01*
X217783Y70450D01*
X217999Y70665D01*
X220418D01*
X221056Y70665D01*
X222056Y70665D01*
X226961D01*
Y70888D01*
X231437D01*
X232413Y71082D01*
X233239Y71635D01*
X233802Y72198D01*
X234355Y73024D01*
X234549Y74000D01*
X234355Y74976D01*
X233802Y75802D01*
X232976Y76355D01*
X232000Y76549D01*
X231025Y76355D01*
X230472Y75986D01*
X226961D01*
Y76209D01*
X222056D01*
X221418Y76209D01*
X220418Y76209D01*
X216663D01*
X216214Y77203D01*
X216612Y77716D01*
X217913D01*
X218159Y77765D01*
X220956Y77765D01*
X221956Y77765D01*
X226861D01*
Y78488D01*
X229137D01*
X230113Y78682D01*
X230939Y79235D01*
X231578Y79873D01*
X232131Y80700D01*
X232325Y81676D01*
Y83395D01*
X233301Y83939D01*
X233666Y83768D01*
X233914Y83521D01*
Y82228D01*
X234069Y81448D01*
X234189Y81268D01*
Y80772D01*
X234228Y80575D01*
Y77228D01*
X239350Y77228D01*
X240102Y76409D01*
X240095Y76244D01*
X237558Y73707D01*
X237116Y73046D01*
X236961Y72265D01*
Y39663D01*
X219360Y22063D01*
X210915D01*
X205191Y27786D01*
X205295Y28038D01*
X205452Y29224D01*
X205295Y30410D01*
X204838Y31516D01*
X204110Y32465D01*
X203160Y33193D01*
X202055Y33651D01*
X200869Y33807D01*
X199683Y33651D01*
X198578Y33193D01*
X197629Y32465D01*
X196901Y31516D01*
X196443Y30410D01*
X196287Y29224D01*
X196443Y28038D01*
X196901Y26933D01*
X197629Y25984D01*
X198578Y25256D01*
X199683Y24798D01*
X200869Y24642D01*
X202055Y24798D01*
X202307Y24902D01*
X208628Y18582D01*
X209290Y18140D01*
X210070Y17984D01*
X220205D01*
X220985Y18140D01*
X221647Y18582D01*
X240442Y37377D01*
X240442Y37377D01*
X240884Y38039D01*
X241039Y38819D01*
X241039Y38819D01*
Y71421D01*
X244442Y74824D01*
X244884Y75485D01*
X245039Y76266D01*
Y76590D01*
X245677Y77228D01*
X246677Y77228D01*
X251583D01*
Y82772D01*
X251049D01*
X250848Y83366D01*
X251539Y84228D01*
X256248D01*
X256724Y84228D01*
Y84228D01*
X257228Y84276D01*
Y84276D01*
X262772D01*
X263228Y83465D01*
Y83228D01*
X268134D01*
X268772Y83228D01*
X269772Y83228D01*
X271406D01*
Y86000D01*
Y88772D01*
X269772D01*
X269134Y88772D01*
X268134Y88772D01*
X263228D01*
X262772Y89583D01*
X262772Y90819D01*
Y95398D01*
X263006Y95874D01*
X263563Y96228D01*
X263819Y96228D01*
X265453D01*
Y99000D01*
Y101772D01*
X263819D01*
X263181Y101772D01*
X262181Y101772D01*
X257276D01*
Y101772D01*
X256677D01*
Y101772D01*
X253085D01*
X252928Y102760D01*
X253714Y103286D01*
X254240Y104072D01*
X254425Y105000D01*
X254240Y105928D01*
X253714Y106714D01*
X252928Y107240D01*
X252000Y107424D01*
X251072Y107240D01*
X250529Y106877D01*
X249702Y107182D01*
X249529Y107320D01*
Y116952D01*
X249413Y117537D01*
X249081Y118034D01*
X247545Y119570D01*
X247927Y120494D01*
X271983D01*
X276331Y116146D01*
Y114332D01*
X276190Y114238D01*
X275665Y113451D01*
X275480Y112524D01*
X275665Y111596D01*
X276190Y110809D01*
X276977Y110284D01*
X277905Y110099D01*
X278833Y110284D01*
X279619Y110809D01*
X279873Y111189D01*
X281053Y111424D01*
X298689Y93788D01*
X298689Y93788D01*
X299961Y92516D01*
X300457Y92185D01*
X301042Y92068D01*
X304769D01*
X307142Y89696D01*
X306759Y88772D01*
X304752D01*
X304323Y88772D01*
Y88772D01*
X303772Y88724D01*
Y88724D01*
X298752D01*
X298228Y88724D01*
Y88724D01*
X297772Y88677D01*
Y88677D01*
X292228D01*
X292228Y83563D01*
X291853Y82974D01*
X291378Y82772D01*
X286819D01*
X286181Y82772D01*
X285181Y82772D01*
X280276D01*
Y81122D01*
X278908D01*
X278128Y80967D01*
X277466Y80525D01*
X277122Y80181D01*
X265877D01*
X265747Y80310D01*
X265677Y80665D01*
X265151Y81451D01*
X264365Y81977D01*
X263437Y82161D01*
X262509Y81977D01*
X261723Y81451D01*
X261197Y80665D01*
X261013Y79737D01*
X261197Y78809D01*
X261723Y78023D01*
X262509Y77497D01*
X262864Y77426D01*
X263590Y76700D01*
X264252Y76258D01*
X265032Y76103D01*
X277967D01*
X278747Y76258D01*
X279409Y76700D01*
X279753Y77044D01*
X281104D01*
X281834Y77189D01*
X282276D01*
X282473Y77228D01*
X285181D01*
X285819Y77228D01*
X286819Y77228D01*
X291496D01*
X292017Y76769D01*
X292228Y76437D01*
X292228Y70652D01*
X291521Y69945D01*
X278087D01*
X278087Y69945D01*
X277306Y69789D01*
X276645Y69347D01*
X265763Y58465D01*
X265321Y57804D01*
X265165Y57024D01*
Y45008D01*
X265321Y44228D01*
X265763Y43566D01*
X270040Y39289D01*
X269873Y38887D01*
X269717Y37701D01*
X269873Y36515D01*
X270331Y35410D01*
X271059Y34460D01*
X272008Y33732D01*
X273113Y33274D01*
X274299Y33118D01*
X275485Y33274D01*
X276590Y33732D01*
X277539Y34460D01*
X278268Y35410D01*
X278726Y36515D01*
X278882Y37701D01*
X278726Y38887D01*
X278268Y39992D01*
X277539Y40941D01*
X276590Y41669D01*
X275485Y42127D01*
X274299Y42283D01*
X273113Y42127D01*
X273011Y42085D01*
X269244Y45853D01*
Y51719D01*
X270244Y51918D01*
X270331Y51709D01*
X271059Y50760D01*
X272008Y50031D01*
X273113Y49574D01*
X274299Y49417D01*
X275485Y49574D01*
X276590Y50031D01*
X277539Y50760D01*
X278260Y51699D01*
X293933D01*
Y50205D01*
X293933Y50205D01*
Y49843D01*
X293933D01*
X293933Y49205D01*
Y44299D01*
X295872D01*
X298942Y41228D01*
X299769Y40676D01*
X300745Y40482D01*
X304213D01*
Y40252D01*
X309118D01*
X309756Y40252D01*
X310756Y40252D01*
X315661D01*
Y40462D01*
X317421D01*
X318397Y40656D01*
X319224Y41208D01*
X319776Y42035D01*
X319970Y43011D01*
X319776Y43986D01*
X319224Y44813D01*
X318397Y45366D01*
X317421Y45560D01*
X315661D01*
Y45795D01*
X310756D01*
X310118Y45795D01*
X309118Y45795D01*
X307599D01*
X307143Y46795D01*
X307513Y47265D01*
X309556Y47265D01*
X310556Y47265D01*
X315461D01*
Y47979D01*
X316744D01*
X317072Y47760D01*
X318000Y47576D01*
X318928Y47760D01*
X319714Y48286D01*
X320240Y49072D01*
X320425Y50000D01*
X320240Y50928D01*
X319714Y51714D01*
X318928Y52240D01*
X318000Y52425D01*
X317072Y52240D01*
X316799Y52057D01*
X315461D01*
Y52808D01*
X310556D01*
X309918Y52808D01*
X308918Y52808D01*
X304281D01*
X303835Y53560D01*
X304239Y54278D01*
X308886D01*
X309524Y54278D01*
X310524Y54278D01*
X315429D01*
Y54475D01*
X317236D01*
X318212Y54669D01*
X318278Y54713D01*
X318633Y54784D01*
X319419Y55309D01*
X319945Y56096D01*
X320129Y57024D01*
X319945Y57951D01*
X319419Y58738D01*
X318633Y59264D01*
X318278Y59334D01*
X318212Y59379D01*
X317407Y59539D01*
X316991Y60021D01*
X316772Y60422D01*
X316772Y60573D01*
Y65181D01*
X316772Y65819D01*
X316772Y66819D01*
Y68453D01*
X314000D01*
Y69453D01*
X316772D01*
Y71248D01*
X316772Y71724D01*
X316724Y72705D01*
Y74500D01*
X313953D01*
Y75500D01*
X316724D01*
Y77772D01*
X314288D01*
X313906Y78695D01*
X318439Y83228D01*
X321677D01*
Y88772D01*
X316772D01*
X316134Y88772D01*
Y88772D01*
X315772D01*
Y88772D01*
X312391D01*
X306484Y94679D01*
X305988Y95011D01*
X305402Y95127D01*
X301676D01*
X300852Y95951D01*
X300852Y95951D01*
X279904Y116899D01*
X280396Y117821D01*
X280505Y117799D01*
X281433Y117984D01*
X282219Y118509D01*
X282745Y119296D01*
X282929Y120224D01*
X282875Y120494D01*
X283627Y121494D01*
X300929D01*
X301514Y121611D01*
X302011Y121942D01*
X307297Y127228D01*
X310677D01*
X310677Y127228D01*
X311039D01*
Y127228D01*
X311677Y127228D01*
X316583D01*
Y132772D01*
X313202D01*
X311392Y134581D01*
X310896Y134913D01*
X310724Y134947D01*
Y136500D01*
X307953D01*
Y137500D01*
X310724D01*
Y139295D01*
X310772Y140276D01*
Y140426D01*
X311772Y140961D01*
X312072Y140760D01*
X313000Y140576D01*
X313928Y140760D01*
X314714Y141286D01*
X315240Y142072D01*
X315424Y143000D01*
X315240Y143928D01*
X314714Y144714D01*
X313928Y145240D01*
X313000Y145424D01*
X312072Y145240D01*
X311772Y145039D01*
X310772Y145574D01*
X310772Y146819D01*
Y151724D01*
X305228D01*
Y151724D01*
X304772D01*
X303917Y152076D01*
X303677Y152228D01*
Y157772D01*
X297746Y157772D01*
X297039Y158479D01*
Y163811D01*
X297039Y163811D01*
X296884Y164592D01*
X296442Y165253D01*
X279453Y182242D01*
X279783Y183038D01*
X279939Y184224D01*
X279783Y185410D01*
X279325Y186516D01*
X278597Y187465D01*
X277648Y188193D01*
X276542Y188651D01*
X275356Y188807D01*
X274170Y188651D01*
X273065Y188193D01*
X272116Y187465D01*
X271388Y186516D01*
X270930Y185410D01*
X270774Y184224D01*
X270930Y183038D01*
X271388Y181933D01*
X272116Y180984D01*
X273065Y180256D01*
X274170Y179798D01*
X275356Y179642D01*
X276177Y179750D01*
X292961Y162967D01*
Y158479D01*
X292254Y157772D01*
X291228Y157772D01*
X286323D01*
Y152228D01*
X286323D01*
X286276Y151772D01*
X286276D01*
Y146752D01*
X286228Y145772D01*
X286228Y145248D01*
Y143500D01*
X289000D01*
Y142500D01*
X286228D01*
Y140724D01*
X286228Y139976D01*
X286228Y139228D01*
Y137453D01*
X289000D01*
Y136453D01*
X286228D01*
Y134819D01*
X286228Y134181D01*
X286228Y133181D01*
Y128276D01*
X291772D01*
Y128276D01*
X292228D01*
Y128276D01*
X297772D01*
Y129518D01*
X299228D01*
Y127228D01*
X301664D01*
X302047Y126304D01*
X300296Y124553D01*
X275078D01*
X274526Y125105D01*
X274030Y125437D01*
X273445Y125553D01*
X261004D01*
X260336Y126553D01*
X260424Y127000D01*
X260240Y127928D01*
X259714Y128714D01*
X259529Y128838D01*
Y139228D01*
X260866D01*
X260866Y139228D01*
X261228D01*
Y139228D01*
X261866Y139228D01*
X266772D01*
Y144772D01*
X263439D01*
X259772Y148439D01*
Y151181D01*
X259772Y151819D01*
X259772Y152819D01*
Y154453D01*
X257000D01*
X254228D01*
Y152819D01*
X254228Y152181D01*
X254228Y151284D01*
X254198Y151254D01*
X252802D01*
X252772Y151284D01*
Y151819D01*
X252772Y152819D01*
Y157724D01*
X247228D01*
Y156992D01*
X245772D01*
Y157724D01*
X245039D01*
Y161906D01*
X244884Y162686D01*
X244442Y163347D01*
X244442Y163347D01*
X238772Y169018D01*
Y171677D01*
X234039D01*
Y187000D01*
X233884Y187780D01*
X233442Y188442D01*
X218376Y203508D01*
X218782Y204487D01*
X218938Y205673D01*
X218782Y206859D01*
X218324Y207964D01*
X217596Y208913D01*
X216647Y209642D01*
X215541Y210100D01*
X214355Y210256D01*
D02*
G37*
G36*
X259557Y188741D02*
Y184724D01*
X263574D01*
X263484Y185410D01*
X263026Y186516D01*
X262297Y187465D01*
X261348Y188193D01*
X260243Y188651D01*
X259557Y188741D01*
D02*
G37*
G36*
X258557D02*
X257871Y188651D01*
X256766Y188193D01*
X255817Y187465D01*
X255089Y186516D01*
X254631Y185410D01*
X254540Y184724D01*
X258557D01*
Y188741D01*
D02*
G37*
G36*
X48397Y198672D02*
X46966Y198531D01*
X45590Y198114D01*
X44322Y197436D01*
X43211Y196524D01*
X42299Y195413D01*
X41621Y194145D01*
X41203Y192769D01*
X41063Y191338D01*
X41203Y189907D01*
X41621Y188531D01*
X42299Y187263D01*
X43211Y186152D01*
X44322Y185239D01*
X45590Y184562D01*
X46966Y184144D01*
X48397Y184003D01*
X49828Y184144D01*
X51204Y184562D01*
X52472Y185239D01*
X53583Y186152D01*
X54496Y187263D01*
X55173Y188531D01*
X55591Y189907D01*
X55732Y191338D01*
X55591Y192769D01*
X55173Y194145D01*
X54496Y195413D01*
X53583Y196524D01*
X52472Y197436D01*
X51204Y198114D01*
X49828Y198531D01*
X48397Y198672D01*
D02*
G37*
G36*
X275356Y205106D02*
X274170Y204950D01*
X273065Y204492D01*
X272116Y203764D01*
X271388Y202815D01*
X270930Y201710D01*
X270774Y200524D01*
X270930Y199338D01*
X271388Y198232D01*
X272116Y197283D01*
X273065Y196555D01*
X274170Y196097D01*
X275356Y195941D01*
X276542Y196097D01*
X277648Y196555D01*
X278597Y197283D01*
X279127Y197975D01*
X284119D01*
X295165Y186928D01*
Y182018D01*
X295165Y182018D01*
Y181656D01*
X295165D01*
X295165Y181018D01*
Y176113D01*
X297104D01*
X302064Y171153D01*
Y170709D01*
X302113Y170462D01*
Y167665D01*
X307018D01*
X307656Y167665D01*
X308656Y167665D01*
X313561D01*
Y167914D01*
X315369D01*
X316344Y168108D01*
X316411Y168152D01*
X316765Y168223D01*
X317551Y168748D01*
X318077Y169535D01*
X318262Y170463D01*
X318077Y171390D01*
X317551Y172177D01*
X316765Y172703D01*
X316411Y172773D01*
X316344Y172818D01*
X315369Y173012D01*
X313561D01*
Y173209D01*
X308656D01*
X308018Y173209D01*
X307171Y173209D01*
X306654Y173926D01*
X307001Y174865D01*
X307756Y174865D01*
X308756Y174865D01*
X313661D01*
Y175598D01*
X315433D01*
X315660Y175643D01*
X316000Y175575D01*
X316928Y175760D01*
X317714Y176286D01*
X318240Y177072D01*
X318425Y178000D01*
X318240Y178928D01*
X317714Y179714D01*
X316928Y180240D01*
X316000Y180424D01*
X315072Y180240D01*
X314661Y179965D01*
X313661Y180409D01*
Y180409D01*
X308756D01*
X308118Y180409D01*
X307118Y180409D01*
X306212D01*
X305767Y181388D01*
X306301Y181965D01*
X307756Y181965D01*
X308756Y181965D01*
X313661D01*
Y182188D01*
X315937D01*
X316913Y182382D01*
X317739Y182935D01*
X318292Y183762D01*
X318486Y184737D01*
X318292Y185713D01*
X317739Y186539D01*
X316913Y187092D01*
X315937Y187286D01*
X313661D01*
Y187509D01*
X308756D01*
X308118Y187509D01*
X307118Y187509D01*
X302213D01*
Y185717D01*
X301672Y185285D01*
X300709Y185711D01*
Y187561D01*
X300271D01*
Y187976D01*
X300077Y188952D01*
X299524Y189779D01*
X286977Y202326D01*
X286150Y202879D01*
X285174Y203073D01*
X279127D01*
X278597Y203764D01*
X277648Y204492D01*
X276542Y204950D01*
X275356Y205106D01*
D02*
G37*
G36*
X263574Y183724D02*
X259557D01*
Y179708D01*
X260243Y179798D01*
X261348Y180256D01*
X262297Y180984D01*
X263026Y181933D01*
X263484Y183038D01*
X263574Y183724D01*
D02*
G37*
G36*
X258557D02*
X254540D01*
X254631Y183038D01*
X255089Y181933D01*
X255817Y180984D01*
X256766Y180256D01*
X257871Y179798D01*
X258557Y179708D01*
Y183724D01*
D02*
G37*
G36*
X36037Y171744D02*
X33765D01*
Y169473D01*
X36037D01*
Y171744D01*
D02*
G37*
G36*
X191772Y171724D02*
X189500D01*
Y169453D01*
X191772D01*
Y171724D01*
D02*
G37*
G36*
X188500D02*
X186228D01*
Y169453D01*
X188500D01*
Y171724D01*
D02*
G37*
G36*
X25383Y171174D02*
Y168903D01*
X28049D01*
Y171174D01*
X25383D01*
D02*
G37*
G36*
X28049Y167903D02*
X25383D01*
Y165631D01*
X28049D01*
Y167903D01*
D02*
G37*
G36*
X76772Y165677D02*
X74500D01*
Y163406D01*
X76772D01*
Y165677D01*
D02*
G37*
G36*
X73500D02*
X71228D01*
Y163406D01*
X73500D01*
Y165677D01*
D02*
G37*
G36*
X275356Y174039D02*
X273925Y173898D01*
X272550Y173481D01*
X271282Y172803D01*
X270170Y171891D01*
X269258Y170780D01*
X268580Y169511D01*
X268163Y168136D01*
X268022Y166705D01*
X268163Y165274D01*
X268580Y163898D01*
X269258Y162630D01*
X270170Y161518D01*
X271282Y160606D01*
X272550Y159929D01*
X273925Y159511D01*
X275356Y159370D01*
X276787Y159511D01*
X278163Y159929D01*
X279431Y160606D01*
X280543Y161518D01*
X281455Y162630D01*
X282133Y163898D01*
X282550Y165274D01*
X282691Y166705D01*
X282550Y168136D01*
X282133Y169511D01*
X281455Y170780D01*
X280543Y171891D01*
X279431Y172803D01*
X278163Y173481D01*
X276787Y173898D01*
X275356Y174039D01*
D02*
G37*
G36*
X107409Y161344D02*
X105137D01*
Y158679D01*
X107409D01*
Y161344D01*
D02*
G37*
G36*
X104137D02*
X101865D01*
Y158679D01*
X104137D01*
Y161344D01*
D02*
G37*
G36*
X126205Y161448D02*
X125277Y161264D01*
X124490Y160738D01*
X123965Y159951D01*
X123780Y159024D01*
X123965Y158096D01*
X124490Y157309D01*
X125277Y156784D01*
X126205Y156599D01*
X127133Y156784D01*
X127919Y157309D01*
X128445Y158096D01*
X128629Y159024D01*
X128445Y159951D01*
X127919Y160738D01*
X127133Y161264D01*
X126205Y161448D01*
D02*
G37*
G36*
X259772Y157724D02*
X257500D01*
Y155453D01*
X259772D01*
Y157724D01*
D02*
G37*
G36*
X256500D02*
X254228D01*
Y155453D01*
X256500D01*
Y157724D01*
D02*
G37*
G36*
X207677Y156500D02*
X205405D01*
Y154228D01*
X207677D01*
Y156500D01*
D02*
G37*
G36*
X39698Y148884D02*
X37426D01*
Y146613D01*
X39698D01*
Y148884D01*
D02*
G37*
G36*
X96782Y146209D02*
X95782Y146209D01*
X90876D01*
Y145262D01*
X89434D01*
X89231Y145566D01*
X88842Y145826D01*
X88384Y145917D01*
X83339D01*
X82881Y145826D01*
X82492Y145566D01*
X82233Y145178D01*
X82142Y144720D01*
Y142745D01*
X82233Y142287D01*
X82492Y141899D01*
X82881Y141639D01*
X83339Y141548D01*
X88384D01*
X88842Y141639D01*
X89231Y141899D01*
X89434Y142203D01*
X90876D01*
Y140665D01*
X95782D01*
X96420Y140665D01*
X97420Y140665D01*
X99053D01*
Y143437D01*
Y146209D01*
X97420D01*
X96782Y146209D01*
D02*
G37*
G36*
X100053Y146209D02*
Y143937D01*
X102325D01*
Y146209D01*
X100053D01*
D02*
G37*
G36*
X102325Y142937D02*
X100053D01*
Y140665D01*
X102325D01*
Y142937D01*
D02*
G37*
G36*
X144737Y142506D02*
Y139037D01*
X148206D01*
X148134Y139581D01*
X147731Y140554D01*
X147090Y141390D01*
X146254Y142031D01*
X145281Y142434D01*
X144737Y142506D01*
D02*
G37*
G36*
X143737D02*
X143193Y142434D01*
X142220Y142031D01*
X141384Y141390D01*
X140743Y140554D01*
X140340Y139581D01*
X140268Y139037D01*
X143737D01*
Y142506D01*
D02*
G37*
G36*
X244677Y131500D02*
X242406D01*
Y129228D01*
X244677D01*
Y131500D01*
D02*
G37*
G36*
X22037Y116553D02*
Y112536D01*
X26054D01*
X25963Y113222D01*
X25506Y114328D01*
X24777Y115277D01*
X23828Y116005D01*
X22723Y116463D01*
X22037Y116553D01*
D02*
G37*
G36*
X21037Y116553D02*
X20351Y116463D01*
X19246Y116005D01*
X18297Y115277D01*
X17569Y114328D01*
X17111Y113222D01*
X17020Y112536D01*
X21037D01*
Y116553D01*
D02*
G37*
G36*
X87837Y120519D02*
X86651Y120363D01*
X85546Y119905D01*
X84597Y119176D01*
X83868Y118228D01*
X83411Y117122D01*
X83254Y115936D01*
X83411Y114750D01*
X83868Y113645D01*
X84597Y112696D01*
X85546Y111968D01*
X86651Y111510D01*
X87837Y111354D01*
X89023Y111510D01*
X90128Y111968D01*
X91077Y112696D01*
X91806Y113645D01*
X92263Y114750D01*
X92419Y115936D01*
X92263Y117122D01*
X91806Y118228D01*
X91077Y119176D01*
X90128Y119905D01*
X89023Y120363D01*
X87837Y120519D01*
D02*
G37*
G36*
X237205Y114448D02*
X236277Y114264D01*
X235490Y113738D01*
X234965Y112951D01*
X234780Y112024D01*
X234965Y111096D01*
X235490Y110309D01*
X236277Y109784D01*
X237205Y109599D01*
X238133Y109784D01*
X238919Y110309D01*
X239445Y111096D01*
X239629Y112024D01*
X239445Y112951D01*
X238919Y113738D01*
X238133Y114264D01*
X237205Y114448D01*
D02*
G37*
G36*
X21037Y111536D02*
X17020D01*
X17111Y110850D01*
X17569Y109745D01*
X18297Y108796D01*
X19246Y108068D01*
X20351Y107610D01*
X21037Y107520D01*
Y111536D01*
D02*
G37*
G36*
X26054D02*
X22037D01*
Y107520D01*
X22723Y107610D01*
X23828Y108068D01*
X24777Y108796D01*
X25506Y109745D01*
X25963Y110850D01*
X26054Y111536D01*
D02*
G37*
G36*
X37836Y116619D02*
X36650Y116463D01*
X35545Y116005D01*
X34596Y115277D01*
X33868Y114328D01*
X33410Y113222D01*
X33254Y112036D01*
X33410Y110850D01*
X33868Y109745D01*
X34596Y108796D01*
X35545Y108068D01*
X36650Y107610D01*
X37836Y107454D01*
X39022Y107610D01*
X40128Y108068D01*
X41076Y108796D01*
X41805Y109745D01*
X42263Y110850D01*
X42419Y112036D01*
X42263Y113222D01*
X41805Y114328D01*
X41076Y115277D01*
X40128Y116005D01*
X39022Y116463D01*
X37836Y116619D01*
D02*
G37*
G36*
X189976Y103618D02*
X187705D01*
Y101347D01*
X189976D01*
Y103618D01*
D02*
G37*
G36*
X186705D02*
X184433D01*
Y101347D01*
X186705D01*
Y103618D01*
D02*
G37*
G36*
X88337Y104154D02*
Y100137D01*
X92354D01*
X92263Y100823D01*
X91806Y101928D01*
X91077Y102877D01*
X90128Y103606D01*
X89023Y104063D01*
X88337Y104154D01*
D02*
G37*
G36*
X87337Y104154D02*
X86651Y104063D01*
X85546Y103606D01*
X84597Y102877D01*
X83868Y101928D01*
X83411Y100823D01*
X83320Y100137D01*
X87337D01*
Y104154D01*
D02*
G37*
G36*
X266453Y101772D02*
Y99500D01*
X268724D01*
Y101772D01*
X266453D01*
D02*
G37*
G36*
X183913Y100087D02*
X177705D01*
Y96831D01*
X183913D01*
Y100087D01*
D02*
G37*
G36*
X155705Y98795D02*
X153433D01*
Y96524D01*
X155705D01*
Y98795D01*
D02*
G37*
G36*
X268724Y98500D02*
X266453D01*
Y96228D01*
X268724D01*
Y98500D01*
D02*
G37*
G36*
X87337Y99137D02*
X83320D01*
X83411Y98451D01*
X83868Y97346D01*
X84597Y96397D01*
X85546Y95668D01*
X86651Y95211D01*
X87337Y95120D01*
Y99137D01*
D02*
G37*
G36*
X92354D02*
X88337D01*
Y95120D01*
X89023Y95211D01*
X90128Y95668D01*
X91077Y96397D01*
X91806Y97346D01*
X92263Y98451D01*
X92354Y99137D01*
D02*
G37*
G36*
X229500Y96772D02*
X227228D01*
Y94500D01*
X229500D01*
Y96772D01*
D02*
G37*
G36*
X155705Y95524D02*
X153433D01*
Y93252D01*
X155705D01*
Y95524D01*
D02*
G37*
G36*
X183913Y95831D02*
X177705D01*
Y92575D01*
X183913D01*
Y95831D01*
D02*
G37*
G36*
X176705D02*
X170496D01*
Y92575D01*
X176705D01*
Y95831D01*
D02*
G37*
G36*
X229500Y93500D02*
X227228D01*
Y91228D01*
X229500D01*
Y93500D01*
D02*
G37*
G36*
X37836Y100320D02*
X36650Y100163D01*
X35545Y99706D01*
X34596Y98977D01*
X33868Y98028D01*
X33410Y96923D01*
X33254Y95737D01*
X33410Y94551D01*
X33868Y93446D01*
X34596Y92497D01*
X35545Y91768D01*
X36650Y91311D01*
X37836Y91154D01*
X39022Y91311D01*
X40128Y91768D01*
X41076Y92497D01*
X41805Y93446D01*
X42263Y94551D01*
X42419Y95737D01*
X42263Y96923D01*
X41805Y98028D01*
X41076Y98977D01*
X40128Y99706D01*
X39022Y100163D01*
X37836Y100320D01*
D02*
G37*
G36*
X21537D02*
X20351Y100163D01*
X19246Y99706D01*
X18297Y98977D01*
X17569Y98028D01*
X17111Y96923D01*
X16954Y95737D01*
X17111Y94551D01*
X17569Y93446D01*
X18297Y92497D01*
X19246Y91768D01*
X20351Y91311D01*
X21537Y91154D01*
X22723Y91311D01*
X23828Y91768D01*
X24777Y92497D01*
X25506Y93446D01*
X25963Y94551D01*
X26120Y95737D01*
X25963Y96923D01*
X25506Y98028D01*
X24777Y98977D01*
X23828Y99706D01*
X22723Y100163D01*
X21537Y100320D01*
D02*
G37*
G36*
X272406Y88772D02*
Y86500D01*
X274677D01*
Y88772D01*
X272406D01*
D02*
G37*
G36*
X274677Y85500D02*
X272406D01*
Y83228D01*
X274677D01*
Y85500D01*
D02*
G37*
G36*
X202724Y81500D02*
X200453D01*
Y79228D01*
X202724D01*
Y81500D01*
D02*
G37*
G36*
X87837Y89452D02*
X86406Y89311D01*
X85030Y88894D01*
X83762Y88216D01*
X82651Y87304D01*
X81739Y86192D01*
X81061Y84924D01*
X80643Y83548D01*
X80502Y82117D01*
X80643Y80686D01*
X81061Y79311D01*
X81739Y78043D01*
X82651Y76931D01*
X83762Y76019D01*
X85030Y75341D01*
X86406Y74924D01*
X87837Y74783D01*
X89268Y74924D01*
X90644Y75341D01*
X91912Y76019D01*
X93023Y76931D01*
X93936Y78043D01*
X94613Y79311D01*
X95031Y80686D01*
X95171Y82117D01*
X95031Y83548D01*
X94613Y84924D01*
X93936Y86192D01*
X93023Y87304D01*
X91912Y88216D01*
X90644Y88894D01*
X89268Y89311D01*
X87837Y89452D01*
D02*
G37*
G36*
X195453Y74772D02*
Y72500D01*
X197724D01*
Y74772D01*
X195453D01*
D02*
G37*
G36*
X129116Y76561D02*
X128188Y76377D01*
X127401Y75851D01*
X126876Y75065D01*
X126691Y74137D01*
X126876Y73209D01*
X127401Y72423D01*
X128188Y71897D01*
X129116Y71712D01*
X130044Y71897D01*
X130830Y72423D01*
X131356Y73209D01*
X131541Y74137D01*
X131356Y75065D01*
X130830Y75851D01*
X130044Y76377D01*
X129116Y76561D01*
D02*
G37*
G36*
X197724Y71500D02*
X195453D01*
Y69228D01*
X197724D01*
Y71500D01*
D02*
G37*
G36*
X115005Y73848D02*
X114077Y73664D01*
X113290Y73138D01*
X112765Y72351D01*
X112580Y71424D01*
X112765Y70496D01*
X113290Y69709D01*
X114077Y69184D01*
X115005Y68999D01*
X115933Y69184D01*
X116719Y69709D01*
X117245Y70496D01*
X117429Y71424D01*
X117245Y72351D01*
X116719Y73138D01*
X115933Y73664D01*
X115005Y73848D01*
D02*
G37*
G36*
X115037Y66461D02*
X114109Y66277D01*
X113323Y65751D01*
X112797Y64965D01*
X112612Y64037D01*
X112797Y63109D01*
X113323Y62323D01*
X114109Y61797D01*
X115037Y61612D01*
X115965Y61797D01*
X116751Y62323D01*
X117277Y63109D01*
X117462Y64037D01*
X117277Y64965D01*
X116751Y65751D01*
X115965Y66277D01*
X115037Y66461D01*
D02*
G37*
G36*
X36758Y64665D02*
X31337D01*
Y59637D01*
X36758D01*
Y64665D01*
D02*
G37*
G36*
X30337D02*
X24916D01*
Y59637D01*
X30337D01*
Y64665D01*
D02*
G37*
G36*
X103153Y64165D02*
X97731D01*
Y59137D01*
X103153D01*
Y64165D01*
D02*
G37*
G36*
X96731D02*
X91310D01*
Y59137D01*
X96731D01*
Y64165D01*
D02*
G37*
G36*
X30837Y59137D02*
D01*
D01*
D01*
D02*
G37*
G36*
X36758Y58637D02*
X31337D01*
Y53610D01*
X36758D01*
Y58637D01*
D02*
G37*
G36*
X30337D02*
X24916D01*
Y53610D01*
X30337D01*
Y58637D01*
D02*
G37*
G36*
X103153Y58137D02*
X97731D01*
Y53110D01*
X103153D01*
Y58137D01*
D02*
G37*
G36*
X96731D02*
X91310D01*
Y53110D01*
X96731D01*
Y58137D01*
D02*
G37*
G36*
X258000Y58583D02*
X256814Y58426D01*
X255709Y57969D01*
X254760Y57240D01*
X254031Y56291D01*
X253574Y55186D01*
X253417Y54000D01*
X253574Y52814D01*
X254031Y51709D01*
X254760Y50760D01*
X255709Y50031D01*
X256814Y49574D01*
X258000Y49417D01*
X259186Y49574D01*
X260291Y50031D01*
X261240Y50760D01*
X261969Y51709D01*
X262426Y52814D01*
X262582Y54000D01*
X262426Y55186D01*
X261969Y56291D01*
X261240Y57240D01*
X260291Y57969D01*
X259186Y58426D01*
X258000Y58583D01*
D02*
G37*
G36*
X99000Y49549D02*
X98024Y49355D01*
X97198Y48802D01*
X96645Y47976D01*
X96489Y47193D01*
X96029Y46756D01*
X95606Y46512D01*
X95451Y46512D01*
X93112D01*
X92942Y46682D01*
X92280Y47124D01*
X91500Y47280D01*
X84751D01*
Y48209D01*
X79995D01*
Y42272D01*
X84751D01*
Y43201D01*
X90228D01*
Y40819D01*
X90228Y40181D01*
X90228Y39181D01*
Y33488D01*
X95772D01*
X96228Y33276D01*
Y33276D01*
X101772D01*
Y38181D01*
X101772Y38819D01*
X101772Y39819D01*
Y44724D01*
X101549D01*
Y47000D01*
X101355Y47976D01*
X100802Y48802D01*
X99976Y49355D01*
X99000Y49549D01*
D02*
G37*
G36*
X132368Y50190D02*
X131682Y50100D01*
X130577Y49642D01*
X129628Y48913D01*
X128900Y47965D01*
X128442Y46859D01*
X128351Y46173D01*
X132368D01*
Y50190D01*
D02*
G37*
G36*
X201369Y50040D02*
Y46024D01*
X205386D01*
X205295Y46710D01*
X204838Y47815D01*
X204110Y48764D01*
X203160Y49492D01*
X202055Y49950D01*
X201369Y50040D01*
D02*
G37*
G36*
X200369Y50040D02*
X199683Y49950D01*
X198578Y49492D01*
X197629Y48764D01*
X196901Y47815D01*
X196443Y46710D01*
X196353Y46024D01*
X200369D01*
Y50040D01*
D02*
G37*
G36*
X132368Y45173D02*
X128351D01*
X128442Y44487D01*
X128900Y43382D01*
X129628Y42433D01*
X130577Y41705D01*
X131682Y41247D01*
X132368Y41157D01*
Y45173D01*
D02*
G37*
G36*
X200369Y45024D02*
X196353D01*
X196443Y44338D01*
X196901Y43232D01*
X197629Y42283D01*
X198578Y41555D01*
X199683Y41097D01*
X200369Y41007D01*
Y45024D01*
D02*
G37*
G36*
X205386D02*
X201369D01*
Y41007D01*
X202055Y41097D01*
X203160Y41555D01*
X204110Y42283D01*
X204838Y43232D01*
X205295Y44338D01*
X205386Y45024D01*
D02*
G37*
G36*
X52495Y41671D02*
X49436D01*
Y39105D01*
X52495D01*
Y41671D01*
D02*
G37*
G36*
X48436D02*
X45377D01*
Y39105D01*
X48436D01*
Y41671D01*
D02*
G37*
G36*
X258500Y42217D02*
Y38201D01*
X262517D01*
X262426Y38887D01*
X261969Y39992D01*
X261240Y40941D01*
X260291Y41669D01*
X259186Y42127D01*
X258500Y42217D01*
D02*
G37*
G36*
X257500Y42217D02*
X256814Y42127D01*
X255709Y41669D01*
X254760Y40941D01*
X254031Y39992D01*
X253574Y38887D01*
X253483Y38201D01*
X257500D01*
Y42217D01*
D02*
G37*
G36*
X88491Y39547D02*
X86613D01*
Y37276D01*
X88491D01*
Y39547D01*
D02*
G37*
G36*
X85613D02*
X83735D01*
Y37276D01*
X85613D01*
Y39547D01*
D02*
G37*
G36*
X52495Y38105D02*
X49436D01*
Y35538D01*
X52495D01*
Y38105D01*
D02*
G37*
G36*
X48436D02*
X45377D01*
Y35538D01*
X48436D01*
Y38105D01*
D02*
G37*
G36*
X88491Y36276D02*
X86613D01*
Y34004D01*
X88491D01*
Y36276D01*
D02*
G37*
G36*
X85613D02*
X83735D01*
Y34004D01*
X85613D01*
Y36276D01*
D02*
G37*
G36*
X262517Y37201D02*
X258500D01*
Y33184D01*
X259186Y33274D01*
X260291Y33732D01*
X261240Y34460D01*
X261969Y35410D01*
X262426Y36515D01*
X262517Y37201D01*
D02*
G37*
G36*
X257500D02*
X253483D01*
X253574Y36515D01*
X254031Y35410D01*
X254760Y34460D01*
X255709Y33732D01*
X256814Y33274D01*
X257500Y33184D01*
Y37201D01*
D02*
G37*
G36*
X183350Y36559D02*
X181919Y36418D01*
X180543Y36001D01*
X179275Y35323D01*
X178163Y34411D01*
X177251Y33299D01*
X176573Y32031D01*
X176156Y30655D01*
X176015Y29224D01*
X176156Y27793D01*
X176573Y26418D01*
X177251Y25150D01*
X178163Y24038D01*
X179275Y23126D01*
X180543Y22448D01*
X181919Y22031D01*
X183350Y21890D01*
X184780Y22031D01*
X186156Y22448D01*
X187424Y23126D01*
X188536Y24038D01*
X189448Y25150D01*
X190126Y26418D01*
X190543Y27793D01*
X190684Y29224D01*
X190543Y30655D01*
X190126Y32031D01*
X189448Y33299D01*
X188536Y34411D01*
X187424Y35323D01*
X186156Y36001D01*
X184780Y36418D01*
X183350Y36559D01*
D02*
G37*
G36*
X274299Y27516D02*
X272868Y27375D01*
X271492Y26957D01*
X270224Y26280D01*
X269113Y25367D01*
X268201Y24256D01*
X267523Y22988D01*
X267106Y21612D01*
X266965Y20181D01*
X267106Y18750D01*
X267523Y17374D01*
X268201Y16106D01*
X269113Y14995D01*
X270224Y14083D01*
X271492Y13405D01*
X272868Y12988D01*
X274299Y12847D01*
X275730Y12988D01*
X277106Y13405D01*
X278374Y14083D01*
X279486Y14995D01*
X280398Y16106D01*
X281075Y17374D01*
X281493Y18750D01*
X281634Y20181D01*
X281493Y21612D01*
X281075Y22988D01*
X280398Y24256D01*
X279486Y25367D01*
X278374Y26280D01*
X277106Y26957D01*
X275730Y27375D01*
X274299Y27516D01*
D02*
G37*
%LPD*%
G36*
X58622Y165076D02*
X57622Y164977D01*
X57593Y165122D01*
X57334Y165511D01*
X56945Y165770D01*
X56487Y165862D01*
X53887D01*
X53710Y166127D01*
X50837Y169000D01*
X51996Y170160D01*
X52737Y170012D01*
X53665Y170197D01*
X53965Y170398D01*
X58622D01*
Y165076D01*
D02*
G37*
G36*
X101437Y172637D02*
X100637Y171837D01*
X91237D01*
X90337Y170937D01*
Y166137D01*
X91237Y165237D01*
X97337D01*
Y159137D01*
X96737Y158537D01*
Y148937D01*
X82537D01*
Y155893D01*
X83256D01*
Y161436D01*
X82537D01*
Y162437D01*
X83160Y163228D01*
X83451Y163423D01*
X83977Y164209D01*
X84162Y165137D01*
X83977Y166065D01*
X83451Y166851D01*
X82665Y167377D01*
X81737Y167562D01*
X80809Y167377D01*
X80023Y166851D01*
X79037Y167176D01*
Y185837D01*
X101437D01*
Y172637D01*
D02*
G37*
G36*
X313189Y82305D02*
X308656Y77772D01*
X305276D01*
Y72516D01*
X304968Y72032D01*
X304484Y71724D01*
X304248Y71724D01*
X299228D01*
Y68632D01*
X299180Y68585D01*
X298772Y68328D01*
X297772Y68879D01*
X297772Y70677D01*
X297772Y71677D01*
Y76465D01*
X297918Y76725D01*
X298471Y77262D01*
X298752Y77276D01*
X300500D01*
Y80047D01*
X301000D01*
Y80547D01*
X303772D01*
X303772Y82457D01*
X304171Y83016D01*
X304602Y83228D01*
X309866D01*
X309866Y83228D01*
X310228D01*
Y83228D01*
X310866Y83228D01*
X312806D01*
X313189Y82305D01*
D02*
G37*
G36*
X173198Y77794D02*
X173228Y77763D01*
Y77181D01*
X173228Y76181D01*
Y74547D01*
X176000D01*
X179013D01*
X180135Y74784D01*
X180228Y74724D01*
Y69819D01*
X180228Y69181D01*
X180228Y68181D01*
Y66429D01*
X177772D01*
Y67772D01*
X172866D01*
X172228Y67772D01*
X171228Y67772D01*
X166961D01*
X166323Y67772D01*
X165256Y67772D01*
X164549Y68479D01*
Y71276D01*
X164772D01*
Y71522D01*
X166228D01*
Y71323D01*
X171772D01*
Y76228D01*
X171772Y76866D01*
X171772Y77763D01*
X171802Y77794D01*
X173198D01*
D02*
G37*
%LPC*%
G36*
X303772Y79547D02*
X301500D01*
Y77276D01*
X303772D01*
Y79547D01*
D02*
G37*
G36*
X178772Y73547D02*
X176500D01*
Y71276D01*
X178772D01*
Y73547D01*
D02*
G37*
G36*
X175500D02*
X173228D01*
Y71276D01*
X175500D01*
Y73547D01*
D02*
G37*
G36*
X175453Y153772D02*
Y151500D01*
X177724D01*
Y153772D01*
X175453D01*
D02*
G37*
G36*
X177724Y150500D02*
X175453D01*
Y148228D01*
X177724D01*
Y150500D01*
D02*
G37*
%LPD*%
D12*
X314000Y68953D02*
X314153Y68800D01*
X318500D01*
X301000Y80047D02*
X301100Y79947D01*
Y75400D02*
Y79947D01*
X301000Y80047D02*
X301053Y80100D01*
X305600D01*
X307953Y137000D02*
X308053Y136900D01*
X312500D01*
X174944Y64900D02*
X181853D01*
X183000Y66047D01*
X176587Y117659D02*
X193414D01*
X192000Y88000D02*
X194000Y90000D01*
Y117073D01*
X193414Y117659D02*
X194000Y117073D01*
X195220Y85314D02*
X197906Y88000D01*
X195220Y83172D02*
Y85314D01*
X194047Y82000D02*
X195220Y83172D01*
X176000Y79953D02*
X182776Y86728D01*
X184823D01*
X186094Y88000D01*
X169000Y80000D02*
X175953D01*
X176000Y79953D01*
X187953Y78000D02*
X190681Y80728D01*
X192776D01*
X194047Y82000D01*
X183000Y71953D02*
X189000D01*
X189047Y72000D01*
X182047Y72905D02*
Y78000D01*
Y72905D02*
X183000Y71953D01*
X248000Y99000D02*
Y116952D01*
X244952Y120000D02*
X248000Y116952D01*
X174963Y118862D02*
X176100Y120000D01*
X244952D01*
X175296Y122024D02*
X272616D01*
X277860Y116779D01*
X253906Y99000D02*
X260047D01*
X260000Y92953D02*
Y98953D01*
X260047Y99000D01*
X260000Y87047D02*
X264953D01*
X266000Y86000D01*
X253953Y87000D02*
X259953D01*
X260000Y87047D01*
X301000Y85953D02*
X301047Y86000D01*
X307095D01*
X295000Y85905D02*
X300953D01*
X301000Y85953D01*
X288953Y80000D02*
X295000D01*
Y73811D02*
Y80000D01*
X308047Y75000D02*
X317634Y84587D01*
Y84728D01*
X318905Y86000D01*
X308000Y68906D02*
Y74953D01*
X308047Y75000D01*
X308000Y63000D02*
X313953D01*
X314000Y63047D01*
X302000D02*
X307953D01*
X308000Y63000D01*
X295000Y62000D02*
X301181Y68181D01*
X305402Y93598D02*
X313000Y86000D01*
X301042Y93598D02*
X305402D01*
X302000Y148953D02*
Y153905D01*
X300905Y155000D02*
X302000Y153905D01*
X289047Y149000D02*
Y154953D01*
X289094Y155000D01*
X302000Y137047D02*
Y143047D01*
Y137047D02*
X302047Y137000D01*
X302000Y148953D02*
X308000D01*
X294905Y143000D02*
Y148953D01*
X294953Y149000D01*
X295000Y136953D02*
Y142905D01*
X294905Y143000D02*
X295000Y142905D01*
X310311Y133500D02*
X313811Y130000D01*
X305547Y133500D02*
X310311D01*
X302047Y137000D02*
X305547Y133500D01*
X295000Y131047D02*
X300953D01*
X302000Y130000D01*
X289000Y131047D02*
X295000D01*
X300929Y123024D02*
X307906Y130000D01*
X277705Y123024D02*
X300929D01*
X308000Y143047D02*
X308047Y143000D01*
X313000D01*
X256525Y126000D02*
X258000Y127475D01*
Y141905D02*
X258095Y142000D01*
X258000Y127475D02*
Y141905D01*
X161205Y126539D02*
X163405D01*
X163944Y126000D01*
X256525D01*
X161248Y124024D02*
X273445D01*
X274445Y123024D01*
X277705D01*
X280505Y120224D01*
X174693Y121421D02*
X175296Y122024D01*
X161205Y121421D02*
X174693D01*
X161205Y118862D02*
X174963D01*
X257000Y149047D02*
X262728Y143319D01*
Y143272D02*
Y143319D01*
Y143272D02*
X264000Y142000D01*
X250000Y149047D02*
X257000D01*
X248000Y136000D02*
X249272Y137272D01*
Y139083D01*
X252189Y142000D01*
X241953Y138000D02*
X246000D01*
X248000Y136000D01*
X236047Y132047D02*
Y138000D01*
X236000Y132000D02*
X236047Y132047D01*
X236000Y138047D02*
Y144047D01*
Y138047D02*
X236047Y138000D01*
X243000Y144000D02*
Y149047D01*
X192953Y157000D02*
X194220Y155733D01*
Y153686D02*
Y155733D01*
Y153686D02*
X196906Y151000D01*
X192953Y157000D02*
X199000D01*
X189000Y158953D02*
Y163047D01*
X187047Y157000D02*
X189000Y158953D01*
X169000Y151047D02*
Y157047D01*
Y151047D02*
X169047Y151000D01*
X161728Y155776D02*
X163000Y157047D01*
X158151Y155776D02*
X161728D01*
X157812Y155437D02*
X158151Y155776D01*
X157337Y155437D02*
X157812D01*
X163000Y162953D02*
X169000D01*
X163189Y163142D02*
Y169000D01*
X163000Y162953D02*
X163189Y163142D01*
X175094Y168905D02*
X182000D01*
X175000Y169000D02*
X175094Y168905D01*
X187000Y157000D02*
X187047D01*
X182000Y163000D02*
X188953D01*
X189000Y163047D01*
X191000Y136906D02*
Y151000D01*
X186094Y132000D02*
X191000Y136906D01*
X130091Y132000D02*
X186094D01*
X125932Y127841D02*
X130091Y132000D01*
X138000Y126739D02*
Y129622D01*
X126778Y133878D02*
X149578D01*
X154237Y138537D01*
X123037Y130137D02*
X126778Y133878D01*
X182409Y153686D02*
X185094Y151000D01*
X182409Y153686D02*
Y155591D01*
X181000Y157000D02*
X182409Y155591D01*
X169047Y157000D02*
X181000D01*
X169000Y157047D02*
X169047Y157000D01*
X138200Y126539D02*
X138205D01*
X138000Y126739D02*
X138200Y126539D01*
X125932Y125128D02*
Y127841D01*
Y125128D02*
X132197Y118862D01*
X138205D01*
X123037Y124337D02*
Y130137D01*
X131358Y126856D02*
X134039Y124175D01*
X138010D01*
X128310Y126856D02*
X131358D01*
X124852Y113744D02*
X138205D01*
X124000Y114596D02*
X124852Y113744D01*
X72591Y147405D02*
X76542D01*
X72523Y147473D02*
X72591Y147405D01*
X71437Y42396D02*
Y44660D01*
Y42396D02*
X75785Y38047D01*
X77755D01*
X78633Y37170D01*
Y36776D02*
Y37170D01*
X59724Y7974D02*
X71132D01*
X118537Y110284D02*
X119284Y109537D01*
X118537Y110284D02*
Y113937D01*
X47437Y29090D02*
X49637Y26890D01*
X47437Y29090D02*
Y31637D01*
X148737Y154998D02*
X148898Y154837D01*
X76542Y147405D02*
X76609Y147473D01*
X104337Y161544D02*
X104637Y161844D01*
X104337Y141037D02*
Y161544D01*
X103968Y141037D02*
X104337D01*
X93637Y168555D02*
X104619D01*
X104637Y168537D01*
X99553Y143437D02*
X100825Y142165D01*
X102840D01*
X103968Y141037D01*
X85861Y143733D02*
X93352D01*
X93648Y143437D01*
X36201Y168637D02*
X36537Y168973D01*
X31737Y168637D02*
X36201D01*
X24883Y168403D02*
X25118Y168637D01*
X31737D01*
X17732Y161390D02*
X17961Y161619D01*
Y168173D01*
X18191Y168403D01*
X44551Y163516D02*
X44713Y163677D01*
X36986Y163516D02*
X44551D01*
X36537Y163067D02*
X36986Y163516D01*
X71132Y7974D02*
X71668Y7437D01*
X72037D01*
X59682Y13837D02*
X59724Y13879D01*
X59913Y13690D01*
X66437Y13990D02*
X66737Y13690D01*
X107737Y113837D02*
X108587D01*
X112037Y107144D02*
Y116165D01*
X114037Y115337D02*
X123037Y124337D01*
X114037Y107972D02*
Y115337D01*
Y107972D02*
X116501Y105508D01*
X132670D01*
X112037Y107144D02*
X115673Y103508D01*
X112037Y116165D02*
X121037Y125165D01*
X105937Y112037D02*
X107737Y113837D01*
X105937Y28737D02*
Y112037D01*
X99812Y22612D02*
X105937Y28737D01*
X71437Y22612D02*
X99812D01*
X129334Y116540D02*
X129631Y116243D01*
X138145D01*
X56437Y21665D02*
Y22612D01*
X55756Y20984D02*
X56437Y21665D01*
X49637Y20984D02*
X55756D01*
X48936Y46085D02*
X55756D01*
X56437Y45404D01*
Y44660D02*
Y45404D01*
X164439Y138739D02*
Y146239D01*
X122837Y150737D02*
X129337D01*
X134437Y138737D02*
Y145637D01*
X129337Y150737D02*
X134437Y145637D01*
X118037Y145937D02*
X122837Y150737D01*
X134237Y138537D02*
X134437Y138737D01*
X118037Y133637D02*
Y145937D01*
X144189Y138585D02*
X144237Y138537D01*
X124237D02*
X124289Y138589D01*
Y146373D01*
X124342Y146426D01*
X118037Y133637D02*
X121037Y130637D01*
Y125165D02*
Y130637D01*
X133229Y106067D02*
X138205D01*
X132670Y105508D02*
X133229Y106067D01*
X130409Y111185D02*
X138205D01*
X128761Y109537D02*
X130409Y111185D01*
X125190Y109537D02*
X128761D01*
X115673Y103508D02*
X138205D01*
X130999Y123424D02*
X133001Y121421D01*
X138205D01*
X131591Y108575D02*
X138154D01*
X131205Y108189D02*
X131591Y108575D01*
X138010Y124175D02*
X138205Y123980D01*
X221237Y129937D02*
Y135237D01*
X218937Y137537D02*
X221237Y135237D01*
X164237Y138537D02*
X164439Y138739D01*
X187104Y109923D02*
Y114356D01*
X138145Y116243D02*
X138205Y116303D01*
X138154Y108575D02*
X138205Y108626D01*
X277860Y112568D02*
X277905Y112524D01*
X277860Y116779D02*
X299771Y94869D01*
X277860Y112568D02*
Y116779D01*
X161205Y111185D02*
X161299Y111091D01*
X168089D01*
X168183Y110997D01*
X161205Y108626D02*
X165602D01*
X168205Y106024D01*
X161205Y106067D02*
X161405Y105867D01*
X164567D01*
X167944Y102490D01*
Y101284D02*
Y102490D01*
Y101284D02*
X168205Y101024D01*
X161205Y113744D02*
X170224D01*
X174252Y109716D01*
X177205D01*
X161205Y96929D02*
Y103508D01*
Y96929D02*
X162110Y96024D01*
X151205D02*
X156205D01*
X186898Y109716D02*
X187104Y109923D01*
X177205Y109716D02*
X186898D01*
X161205Y123980D02*
X161248Y124024D01*
X299771Y94869D02*
X301042Y93598D01*
X299771Y94869D02*
Y94869D01*
X175232Y116303D02*
X176587Y117659D01*
X161205Y116303D02*
X175232D01*
X132868Y45056D02*
Y45673D01*
X222890Y161737D02*
X222922Y161770D01*
X222790Y154637D02*
X222797Y154644D01*
X312890Y43024D02*
X312903Y43011D01*
X312657Y57049D02*
X312683Y57024D01*
D26*
X161205Y103508D02*
D03*
Y106067D02*
D03*
Y108626D02*
D03*
Y111185D02*
D03*
Y113744D02*
D03*
Y116303D02*
D03*
Y118862D02*
D03*
Y121421D02*
D03*
Y123980D02*
D03*
Y126539D02*
D03*
X138205Y126539D02*
D03*
Y123980D02*
D03*
Y121421D02*
D03*
Y118862D02*
D03*
Y116303D02*
D03*
Y113744D02*
D03*
Y111185D02*
D03*
Y108626D02*
D03*
Y106067D02*
D03*
Y103508D02*
D03*
D33*
X80302Y58637D02*
D03*
X97231D02*
D03*
X47766Y59137D02*
D03*
X30837D02*
D03*
D34*
X24737Y155437D02*
D03*
X199000Y157000D02*
D03*
X204906D02*
D03*
X248000Y136000D02*
D03*
X253906D02*
D03*
X187047Y157000D02*
D03*
X192953D02*
D03*
X236047Y138000D02*
D03*
X241953D02*
D03*
X260047Y99000D02*
D03*
X265953D02*
D03*
X194047Y82000D02*
D03*
X199953D02*
D03*
X308047Y75000D02*
D03*
X313953D02*
D03*
X248047Y87000D02*
D03*
X253953D02*
D03*
X182047Y78000D02*
D03*
X187953D02*
D03*
X216984Y161737D02*
D03*
X222890D02*
D03*
X222790Y154637D02*
D03*
X216884D02*
D03*
X304984Y177637D02*
D03*
X310890D02*
D03*
X310790Y170437D02*
D03*
X304884D02*
D03*
X141424Y73154D02*
D03*
X147330D02*
D03*
X147490Y80250D02*
D03*
X141584D02*
D03*
X218284Y73437D02*
D03*
X224190D02*
D03*
X224090Y80537D02*
D03*
X218184D02*
D03*
X306784Y50036D02*
D03*
X312690D02*
D03*
X312657Y57049D02*
D03*
X306752D02*
D03*
X217184Y168937D02*
D03*
X223090D02*
D03*
X304984Y184737D02*
D03*
X310890D02*
D03*
X141623Y66141D02*
D03*
X147529D02*
D03*
X218384Y66237D02*
D03*
X224290D02*
D03*
X306984Y43024D02*
D03*
X312890D02*
D03*
X142784Y162011D02*
D03*
X148690D02*
D03*
X162110Y96024D02*
D03*
X156205D02*
D03*
X125190Y109537D02*
D03*
X119284D02*
D03*
X148737Y154998D02*
D03*
X142832D02*
D03*
X145484Y169024D02*
D03*
X151390D02*
D03*
X289047Y149000D02*
D03*
X294953D02*
D03*
X235953Y87000D02*
D03*
X230047D02*
D03*
X288953Y80000D02*
D03*
X283047D02*
D03*
X52711Y13837D02*
D03*
X46806D02*
D03*
X201252Y169017D02*
D03*
X207157D02*
D03*
X128705Y66031D02*
D03*
X134610D02*
D03*
X202752Y66024D02*
D03*
X208658D02*
D03*
X128752Y169024D02*
D03*
X134658D02*
D03*
X236000Y132000D02*
D03*
X241905D02*
D03*
X169047Y151000D02*
D03*
X174953D02*
D03*
X266000Y86000D02*
D03*
X271905D02*
D03*
X189047Y72000D02*
D03*
X194953D02*
D03*
X99553Y143437D02*
D03*
X93648D02*
D03*
X42047Y169000D02*
D03*
X47953D02*
D03*
X86390Y158665D02*
D03*
X80484D02*
D03*
X294905Y143000D02*
D03*
X289000D02*
D03*
X235906Y94000D02*
D03*
X230000D02*
D03*
X302047Y137000D02*
D03*
X307953D02*
D03*
X191000Y151000D02*
D03*
X185094D02*
D03*
X196906D02*
D03*
X258095Y142000D02*
D03*
X264000D02*
D03*
X252189D02*
D03*
X169095Y169000D02*
D03*
X175000D02*
D03*
X163189D02*
D03*
X248000Y99000D02*
D03*
X242094D02*
D03*
X253906D02*
D03*
X192000Y88000D02*
D03*
X186094D02*
D03*
X197906D02*
D03*
X313000Y86000D02*
D03*
X307095D02*
D03*
X318905D02*
D03*
X307906Y130000D02*
D03*
X313811D02*
D03*
X302000D02*
D03*
X169095Y65000D02*
D03*
X175000D02*
D03*
X163189D02*
D03*
X242905Y80000D02*
D03*
X248811D02*
D03*
X237000D02*
D03*
X295000Y155000D02*
D03*
X289094D02*
D03*
X300905D02*
D03*
D35*
X93616Y155637D02*
D03*
X182000Y168905D02*
D03*
Y163000D02*
D03*
X236000Y149953D02*
D03*
Y144047D02*
D03*
X169000Y162953D02*
D03*
Y157047D02*
D03*
X250000Y154953D02*
D03*
Y149047D02*
D03*
X163000Y162953D02*
D03*
Y157047D02*
D03*
X243000Y154953D02*
D03*
Y149047D02*
D03*
X289000Y131047D02*
D03*
Y136953D02*
D03*
X260000Y87047D02*
D03*
Y92953D02*
D03*
X183000Y66047D02*
D03*
Y71953D02*
D03*
X49637Y26890D02*
D03*
Y20984D02*
D03*
X99000Y41953D02*
D03*
Y36047D02*
D03*
X93637Y168555D02*
D03*
Y162650D02*
D03*
X17732Y161390D02*
D03*
Y155484D02*
D03*
X308000Y63000D02*
D03*
Y68906D02*
D03*
X302000Y68953D02*
D03*
Y63047D02*
D03*
X295000Y136953D02*
D03*
Y131047D02*
D03*
X242000Y87047D02*
D03*
Y92953D02*
D03*
X169000Y74094D02*
D03*
Y80000D02*
D03*
X295000D02*
D03*
Y85905D02*
D03*
X302000Y148953D02*
D03*
Y143047D02*
D03*
X162000Y74047D02*
D03*
Y79953D02*
D03*
X308000Y148953D02*
D03*
Y143047D02*
D03*
X297937Y184790D02*
D03*
Y178884D02*
D03*
X296705Y52976D02*
D03*
Y47071D02*
D03*
X189000Y163047D02*
D03*
Y168953D02*
D03*
X257000Y149047D02*
D03*
Y154953D02*
D03*
X74000Y162906D02*
D03*
Y157000D02*
D03*
X36537Y168973D02*
D03*
Y163067D02*
D03*
X36926Y155290D02*
D03*
Y149384D02*
D03*
X59724Y13879D02*
D03*
Y7974D02*
D03*
X66737Y13690D02*
D03*
Y7784D02*
D03*
X314000Y63047D02*
D03*
Y68953D02*
D03*
X301000Y85953D02*
D03*
Y80047D02*
D03*
X187205Y104118D02*
D03*
Y110024D02*
D03*
X176000Y79953D02*
D03*
Y74047D02*
D03*
X236000Y163000D02*
D03*
Y157095D02*
D03*
Y168905D02*
D03*
X295000Y67905D02*
D03*
Y62000D02*
D03*
Y73811D02*
D03*
D36*
X48936Y38605D02*
D03*
Y46085D02*
D03*
D37*
X82373Y45240D02*
D03*
D38*
X86113Y36776D02*
D03*
X78633D02*
D03*
D39*
X93000Y43347D02*
D03*
Y36654D02*
D03*
X104637Y168537D02*
D03*
Y161844D02*
D03*
D40*
X18191Y168403D02*
D03*
X24883D02*
D03*
D41*
X85861Y151213D02*
D03*
Y143733D02*
D03*
X76609D02*
D03*
Y147473D02*
D03*
Y151213D02*
D03*
X44713Y156197D02*
D03*
Y163677D02*
D03*
X53965D02*
D03*
Y159937D02*
D03*
Y156197D02*
D03*
D42*
X71437Y44660D02*
D03*
X66437D02*
D03*
X61437D02*
D03*
X56437D02*
D03*
X61437Y22612D02*
D03*
X56437D02*
D03*
X66437D02*
D03*
X71437D02*
D03*
D43*
X177205Y96331D02*
D03*
Y109716D02*
D03*
D44*
X263437Y79737D02*
X263437D01*
X265032Y78142D02*
X277967D01*
X281104Y79083D02*
X281249Y79228D01*
X282276D02*
X283047Y80000D01*
X277967Y78142D02*
X278908Y79083D01*
X281104D01*
X281249Y79228D02*
X282276D01*
X263437Y79737D02*
X265032Y78142D01*
X151205Y21024D02*
X169100Y38919D01*
Y65300D01*
X248429Y80382D02*
X248811Y80000D01*
X248429Y80382D02*
Y86618D01*
X248047Y87000D02*
X248429Y86618D01*
X242000Y92953D02*
X242047Y93000D01*
Y98953D01*
X242094Y99000D01*
X241228Y93724D02*
X242000Y92953D01*
X240332Y93724D02*
X241228D01*
X240057Y94000D02*
X240332Y93724D01*
X235906Y94000D02*
X240057D01*
X235953Y87000D02*
X235976Y87024D01*
X241976D01*
X242000Y87047D01*
X236228Y80772D02*
X237000Y80000D01*
X236228Y80772D02*
Y81953D01*
X235953Y82228D02*
X236228Y81953D01*
X235953Y82228D02*
Y87000D01*
X243000Y76266D02*
Y80000D01*
X239000Y72265D02*
X243000Y76266D01*
X220205Y20024D02*
X239000Y38819D01*
Y72265D01*
X301181Y68181D02*
X301228D01*
X302000Y68953D01*
X278087Y67905D02*
X295000D01*
X267205Y57024D02*
X278087Y67905D01*
X295000Y155000D02*
Y163811D01*
X275356Y183455D02*
X295000Y163811D01*
X236000Y149953D02*
Y157095D01*
X243000Y154953D02*
X250000D01*
X236000Y168905D02*
X243000Y161906D01*
Y154953D02*
Y161906D01*
X233000Y163000D02*
X236000D01*
X232000Y164000D02*
X233000Y163000D01*
X232000Y164000D02*
Y187000D01*
X214355Y204645D02*
X232000Y187000D01*
X214355Y204645D02*
Y205673D01*
X146217Y205680D02*
X169000Y182897D01*
Y169000D02*
Y182897D01*
X310890Y177637D02*
X315433D01*
X315795Y178000D01*
X316000D01*
X312690Y50036D02*
X312708Y50018D01*
X317982D01*
X318000Y50000D01*
X68937Y151937D02*
X74000Y157000D01*
X68937Y151237D02*
Y151937D01*
X52429Y163677D02*
X53965D01*
X47953Y169000D02*
X52268Y164685D01*
Y163839D02*
Y164685D01*
Y163839D02*
X52429Y163677D01*
X47953Y169000D02*
X51390Y172437D01*
X52737D01*
X93000Y36654D02*
X93606Y36047D01*
X99000D01*
X82373Y45240D02*
X91500D01*
X93000Y43740D01*
Y43347D02*
Y43740D01*
X275356Y183455D02*
Y184224D01*
X154569Y73291D02*
X154638Y73361D01*
X60698Y172437D02*
X60768Y172368D01*
X147330Y73154D02*
X147467Y73291D01*
X68937Y143768D02*
Y151237D01*
Y143768D02*
X69057Y143649D01*
Y143551D02*
Y143649D01*
X76497Y143620D02*
X76609Y143733D01*
X69126Y143620D02*
X76497D01*
X69057Y143551D02*
X69126Y143620D01*
X76597Y151225D02*
X76609Y151213D01*
X68949Y151225D02*
X76597D01*
X68937Y151237D02*
X68949Y151225D01*
X52737Y172437D02*
X60698D01*
X56416Y156358D02*
X56833Y156776D01*
X60661Y160049D02*
Y172005D01*
X56833Y156776D02*
X57388D01*
X60661Y172005D02*
X60768Y172112D01*
X57388Y156776D02*
X60661Y160049D01*
X53965Y156197D02*
X54126Y156358D01*
X60768Y172112D02*
Y172368D01*
X54126Y156358D02*
X56416D01*
X52711Y13837D02*
X59682D01*
X59913Y13690D02*
X66737D01*
X66437Y13990D02*
Y22612D01*
X267205Y45008D02*
X274169Y38043D01*
X267205Y45008D02*
Y57024D01*
X210070Y20024D02*
X220205D01*
X200869Y29224D02*
X210070Y20024D01*
X132868Y29374D02*
X141218Y21024D01*
X151205D01*
D45*
X162917Y65000D02*
Y65272D01*
X162000Y66189D02*
X162917Y65272D01*
X162000Y66189D02*
Y74047D01*
X168976Y74071D02*
X169000Y74094D01*
X162024Y74071D02*
X168976D01*
X162000Y74047D02*
X162024Y74071D01*
X161728Y80224D02*
X162000Y79953D01*
X157662Y80224D02*
X161728D01*
X156073Y81813D02*
X157662Y80224D01*
X208658Y66024D02*
X214886Y72252D01*
X208658Y66024D02*
Y73658D01*
X215265Y80265D01*
X217913D01*
X229776Y86728D02*
X230047Y87000D01*
X229776Y81676D02*
Y86728D01*
X229137Y81037D02*
X229776Y81676D01*
X217913Y80265D02*
X218184Y80537D01*
X195240Y175029D02*
Y182274D01*
Y175029D02*
X201252Y169017D01*
X224190Y73437D02*
X231437D01*
X232000Y74000D01*
X99000Y41953D02*
Y47000D01*
X297937Y178884D02*
X304613Y172209D01*
Y170709D02*
Y172209D01*
Y170709D02*
X304884Y170437D01*
X297937Y178884D02*
X303737D01*
X304984Y177637D01*
X297937Y178884D02*
X299275Y180223D01*
X300470D01*
X304984Y184737D01*
X297722Y185005D02*
X297937Y184790D01*
X297722Y185005D02*
Y187976D01*
X224471Y66418D02*
X227352Y63537D01*
X138153Y76818D02*
X141584Y80250D01*
X138153Y76092D02*
Y76818D01*
Y76092D02*
X138705Y75539D01*
X134610Y66031D02*
Y70751D01*
X138705Y72735D02*
Y75539D01*
X136722Y70751D02*
X138705Y72735D01*
X134610Y70751D02*
X136722D01*
X147529Y66141D02*
X154929D01*
X224590Y81037D02*
X229137D01*
X224090Y80537D02*
X224590Y81037D01*
X149479Y81813D02*
X156073D01*
X147703Y80037D02*
X149479Y81813D01*
X135882Y66031D02*
X141623D01*
X227352Y63537D02*
X231237D01*
X310890Y184737D02*
X315937D01*
X223090Y168937D02*
X228137D01*
X148690Y162011D02*
X156011D01*
X156937Y162937D01*
X151390Y169024D02*
X156724D01*
X157037Y169337D01*
X134658Y169024D02*
X145484D01*
X151390D02*
X151563Y168850D01*
X149498Y155437D02*
X157337D01*
X148898Y154837D02*
X149498Y155437D01*
X127152Y170624D02*
X128752Y169024D01*
X127152Y170624D02*
Y178831D01*
X121737Y184246D02*
X127152Y178831D01*
X121737Y184246D02*
Y199135D01*
X127500Y204898D02*
X129136D01*
X121737Y199135D02*
X127500Y204898D01*
X129136D02*
X129918Y205680D01*
X207157Y169017D02*
X216705D01*
X216784Y168937D01*
X190537Y186977D02*
X195240Y182274D01*
X190537Y195537D02*
X197274Y202274D01*
X190537Y186977D02*
Y195537D01*
X197274Y204891D02*
X198056Y205673D01*
X197274Y202274D02*
Y204891D01*
X147490Y80250D02*
X147703Y80037D01*
X134610Y66031D02*
X135882D01*
Y67487D02*
X141631Y73237D01*
X135882Y67302D02*
Y67487D01*
X134610Y66031D02*
X135882Y67302D01*
X147467Y73291D02*
X154569D01*
X224290Y66237D02*
X224471Y66418D01*
X298339Y48705D02*
X299512D01*
X297976Y47071D02*
X303499D01*
X296705D02*
X298339Y48705D01*
X300976Y55292D02*
X302734Y57049D01*
X296705Y47071D02*
X297976D01*
X300976Y50169D02*
Y55292D01*
X302734Y57049D02*
X306752D01*
X303499Y47071D02*
X306192Y49765D01*
X296705Y47071D02*
X300745Y43031D01*
X306528D01*
X306535Y43024D01*
X306799D01*
X306192Y49765D02*
X306528D01*
X299512Y48705D02*
X300976Y50169D01*
X306528Y49765D02*
X306799Y50036D01*
X312903Y43011D02*
X317421D01*
X134658Y169024D02*
X140399Y163283D01*
X140480D01*
X141752Y162011D01*
X134658Y162092D02*
Y169024D01*
Y162092D02*
X141752Y154998D01*
X202752Y56476D02*
Y66024D01*
X209378Y37015D02*
Y49850D01*
X202752Y56476D02*
X209378Y49850D01*
X128705Y66031D02*
X130339Y64397D01*
X139880Y45044D02*
X146263Y38661D01*
X148625D02*
X150382Y36904D01*
X130339Y58119D02*
Y64397D01*
X146263Y38661D02*
X148625D01*
X150382Y31695D02*
Y36904D01*
X130339Y58119D02*
X139880Y48578D01*
X149167Y29374D02*
Y30480D01*
X150382Y31695D01*
X139880Y45044D02*
Y48578D01*
X222922Y161770D02*
X227984D01*
X222797Y154644D02*
X227837D01*
X207157Y164038D02*
Y169017D01*
Y164038D02*
X216205Y154991D01*
X207157Y169017D02*
X212899Y163276D01*
X214980D01*
X216252Y162004D01*
X310790Y170437D02*
X310815Y170463D01*
X315369D01*
X275356Y200524D02*
X285174D01*
X297722Y187976D01*
X312683Y57024D02*
X317236D01*
X274169Y54343D02*
X274264Y54248D01*
X295433D01*
X296705Y52976D01*
X214886Y72252D02*
X215980D01*
X217252Y73524D01*
X208658Y66024D02*
X217252D01*
X209378Y37015D02*
X217168Y29224D01*
D46*
X62337Y80247D02*
Y83604D01*
X64837Y80447D02*
X66147Y79137D01*
X60937Y78937D02*
X61027D01*
X62687Y77277D01*
X61027Y78937D02*
X62337Y80247D01*
X63244Y138644D02*
X63411Y138811D01*
Y166211D01*
X65911Y165176D02*
X75316Y174581D01*
X65911Y137776D02*
Y165176D01*
X63244Y111673D02*
Y138644D01*
X63411Y166211D02*
X72816Y175616D01*
X65745Y112709D02*
Y137609D01*
X65911Y137776D01*
X63244Y111673D02*
X68381Y106537D01*
X65745Y112709D02*
X69416Y109037D01*
X68437Y58637D02*
X80302D01*
X65187Y61887D02*
X68437Y58637D01*
X65187Y48173D02*
Y61887D01*
Y77854D01*
X47766Y59137D02*
X59936D01*
X62687Y61888D01*
Y77277D01*
X65187Y77854D02*
X66147Y78813D01*
Y79137D01*
X76195Y207637D02*
X82216D01*
X75316Y206758D02*
X76195Y207637D01*
X75316Y174581D02*
Y206758D01*
X71538Y109915D02*
Y115936D01*
Y109915D02*
X72417Y109037D01*
X70659D02*
X71538Y109915D01*
X72417Y109037D02*
X74695D01*
X69416D02*
X70659D01*
X74695D02*
X79881Y103850D01*
Y90081D02*
Y103850D01*
X73247Y83447D02*
X79881Y90081D01*
X66147Y79137D02*
X66237D01*
X66437Y44660D02*
Y46923D01*
X65716Y83447D02*
X73247D01*
X64837Y82568D02*
X65716Y83447D01*
X64837Y80447D02*
Y82568D01*
X65187Y48173D02*
X66437Y46923D01*
X71938Y207637D02*
X72816Y206758D01*
Y175616D02*
Y206758D01*
X65917Y207637D02*
X71938D01*
X72417Y106537D02*
X73659D01*
X70659D02*
X71538Y105658D01*
X68381Y106537D02*
X70659D01*
X71538Y105658D02*
X72417Y106537D01*
X73659D02*
X77381Y102815D01*
Y91116D02*
Y102815D01*
X72211Y85947D02*
X77381Y91116D01*
X71538Y99637D02*
Y105658D01*
X64680Y85947D02*
X72211D01*
X62687Y48173D02*
Y61888D01*
X62337Y83604D02*
X64680Y85947D01*
X61437Y46923D02*
X62687Y48173D01*
X61437Y44660D02*
Y46923D01*
D47*
X37836Y95737D02*
D03*
Y112036D02*
D03*
X21537Y95737D02*
D03*
Y112036D02*
D03*
X129918Y189381D02*
D03*
X146217D02*
D03*
X129918Y205680D02*
D03*
X146217D02*
D03*
X198056Y189374D02*
D03*
X214355D02*
D03*
X198056Y205673D02*
D03*
X214355D02*
D03*
X259057Y200524D02*
D03*
Y184224D02*
D03*
X275356Y200524D02*
D03*
Y184224D02*
D03*
X149167Y45673D02*
D03*
X132868D02*
D03*
X149167Y29374D02*
D03*
X132868D02*
D03*
X217168Y45524D02*
D03*
X200869D02*
D03*
X217168Y29224D02*
D03*
X200869D02*
D03*
X258000Y54000D02*
D03*
Y37701D02*
D03*
X274299Y54000D02*
D03*
Y37701D02*
D03*
X71538Y115936D02*
D03*
Y99637D02*
D03*
X87837Y115936D02*
D03*
Y99637D02*
D03*
X82216Y207637D02*
D03*
X65917D02*
D03*
X82216Y191338D02*
D03*
X65917D02*
D03*
D48*
X21537Y129556D02*
D03*
X163737Y205680D02*
D03*
X231875Y205673D02*
D03*
X275356Y166705D02*
D03*
X115348Y29374D02*
D03*
X183350Y29224D02*
D03*
X274299Y20181D02*
D03*
X87837Y82117D02*
D03*
X48397Y191338D02*
D03*
D49*
X174237Y138537D02*
D03*
X164237D02*
D03*
X154237D02*
D03*
X144237D02*
D03*
X134237D02*
D03*
X124237D02*
D03*
D50*
X307087Y19685D02*
D03*
X19685D02*
D03*
Y208661D02*
D03*
X307087D02*
D03*
D51*
X275977Y81024D02*
D03*
X176000Y69700D02*
D03*
X205000Y82000D02*
D03*
X225000Y94000D02*
D03*
X252000Y105000D02*
D03*
X234215Y43367D02*
D03*
Y49273D02*
D03*
Y55178D02*
D03*
X305600Y80100D02*
D03*
X301100Y75400D02*
D03*
X312500Y136900D02*
D03*
X313000Y143000D02*
D03*
X247000Y129000D02*
D03*
X254000D02*
D03*
X258000Y127000D02*
D03*
X280505Y120224D02*
D03*
X243000Y144000D02*
D03*
X205000Y152000D02*
D03*
X138000Y129622D02*
D03*
X180000Y151000D02*
D03*
X189000Y174000D02*
D03*
X232000Y74000D02*
D03*
X128310Y126856D02*
D03*
X124000Y114596D02*
D03*
X72523Y147473D02*
D03*
X56000Y168000D02*
D03*
X72000Y51000D02*
D03*
X316000Y178000D02*
D03*
X318000Y50000D02*
D03*
X12000Y44000D02*
D03*
X18000D02*
D03*
X99000Y47000D02*
D03*
X86000Y31000D02*
D03*
X81000D02*
D03*
X76000D02*
D03*
X265785Y166279D02*
D03*
Y160373D02*
D03*
X257910Y166279D02*
D03*
Y160373D02*
D03*
X250037Y166279D02*
D03*
X250000Y160433D02*
D03*
X265785Y178089D02*
D03*
Y172184D02*
D03*
X257910Y178089D02*
D03*
Y172184D02*
D03*
X250037Y178089D02*
D03*
X250000Y172244D02*
D03*
X285470Y220412D02*
D03*
Y214507D02*
D03*
X277595Y220412D02*
D03*
Y214507D02*
D03*
X269722Y220412D02*
D03*
X269685Y214567D02*
D03*
X261847Y220412D02*
D03*
Y214507D02*
D03*
X253974Y220412D02*
D03*
Y214507D02*
D03*
X246099Y220412D02*
D03*
X246063Y214567D02*
D03*
X214603Y218444D02*
D03*
Y212538D02*
D03*
X206729Y218444D02*
D03*
Y212538D02*
D03*
X198855Y218444D02*
D03*
X198819Y212598D02*
D03*
X189997Y218444D02*
D03*
Y212538D02*
D03*
X182123Y218444D02*
D03*
Y212538D02*
D03*
X174249Y218444D02*
D03*
X174213Y212598D02*
D03*
X156533Y219428D02*
D03*
Y213523D02*
D03*
X148659Y219428D02*
D03*
Y213523D02*
D03*
X140785Y219428D02*
D03*
X140748Y213583D02*
D03*
X133895Y219428D02*
D03*
Y213523D02*
D03*
X126021Y219428D02*
D03*
Y213523D02*
D03*
X118147Y219428D02*
D03*
X118110Y213583D02*
D03*
X95412Y191893D02*
D03*
X89507D02*
D03*
X95412Y199767D02*
D03*
X89507D02*
D03*
X95412Y207641D02*
D03*
X89567Y207677D02*
D03*
X80672Y219548D02*
D03*
X88546Y213643D02*
D03*
Y219548D02*
D03*
X96420Y213643D02*
D03*
X96457Y219488D02*
D03*
X57050Y213643D02*
D03*
Y219548D02*
D03*
X64924D02*
D03*
X72798Y213643D02*
D03*
X72835Y219488D02*
D03*
X54134Y140748D02*
D03*
X49213D02*
D03*
X44291D02*
D03*
X39370D02*
D03*
X81737Y165137D02*
D03*
X70000Y162000D02*
D03*
X109252Y154528D02*
D03*
Y158465D02*
D03*
Y161417D02*
D03*
X62992Y185039D02*
D03*
X66929D02*
D03*
X62992Y196850D02*
D03*
X66929D02*
D03*
X151575Y178150D02*
D03*
X146653D02*
D03*
X141732D02*
D03*
X151575Y182087D02*
D03*
X146653D02*
D03*
X141732D02*
D03*
X121063Y154528D02*
D03*
X132874D02*
D03*
X128937D02*
D03*
X125000D02*
D03*
X156837Y145837D02*
D03*
X151437Y145937D02*
D03*
X146037D02*
D03*
X140437Y145837D02*
D03*
X156537Y149537D02*
D03*
X151337Y149837D02*
D03*
X146137Y149737D02*
D03*
X140637D02*
D03*
X226637Y142637D02*
D03*
X221437Y142937D02*
D03*
X226637Y146837D02*
D03*
X221437D02*
D03*
X269685Y151575D02*
D03*
X263779Y155512D02*
D03*
X269685D02*
D03*
X284000Y141000D02*
D03*
X281496Y143701D02*
D03*
Y147638D02*
D03*
X264000Y150000D02*
D03*
X281496Y151575D02*
D03*
X275590D02*
D03*
X281496Y155512D02*
D03*
X275590D02*
D03*
X312992Y165354D02*
D03*
Y159449D02*
D03*
Y153543D02*
D03*
Y147638D02*
D03*
X288000Y101000D02*
D03*
X287402Y114173D02*
D03*
Y120079D02*
D03*
X303150Y108268D02*
D03*
Y114173D02*
D03*
Y120079D02*
D03*
X307087Y114173D02*
D03*
Y120079D02*
D03*
X311024D02*
D03*
X311000Y114000D02*
D03*
X314961Y120079D02*
D03*
Y114173D02*
D03*
Y108268D02*
D03*
X311024D02*
D03*
X307087D02*
D03*
X228310Y49273D02*
D03*
X307087Y104331D02*
D03*
Y100394D02*
D03*
X318898Y74803D02*
D03*
X318500Y68800D02*
D03*
X318898Y62992D02*
D03*
X314961Y37402D02*
D03*
X309055D02*
D03*
X303150D02*
D03*
X297244D02*
D03*
X259842Y43307D02*
D03*
X253937D02*
D03*
X265748Y39370D02*
D03*
Y33465D02*
D03*
Y27559D02*
D03*
X253937D02*
D03*
X259842D02*
D03*
Y21654D02*
D03*
X253937D02*
D03*
X265748Y15748D02*
D03*
X259842D02*
D03*
X253937D02*
D03*
X248031D02*
D03*
Y21654D02*
D03*
Y27559D02*
D03*
Y33465D02*
D03*
Y39370D02*
D03*
Y43307D02*
D03*
Y47244D02*
D03*
Y51181D02*
D03*
Y55118D02*
D03*
X251969Y59055D02*
D03*
X248031D02*
D03*
X259806Y78800D02*
D03*
X251000Y72000D02*
D03*
X222405Y37462D02*
D03*
X228310D02*
D03*
Y43367D02*
D03*
Y55178D02*
D03*
X222405D02*
D03*
X216499D02*
D03*
X188940Y15808D02*
D03*
X183034D02*
D03*
X177129D02*
D03*
X159412Y23682D02*
D03*
Y15808D02*
D03*
X171223D02*
D03*
X165318D02*
D03*
Y23682D02*
D03*
X171223D02*
D03*
Y31556D02*
D03*
X177129Y39430D02*
D03*
Y47304D02*
D03*
X188940Y39430D02*
D03*
X183034D02*
D03*
X188940Y47304D02*
D03*
X183034D02*
D03*
X135790Y39430D02*
D03*
X129885D02*
D03*
X125948Y41399D02*
D03*
Y47304D02*
D03*
X129885Y51241D02*
D03*
X191000Y93000D02*
D03*
X193000Y67000D02*
D03*
X186971Y61084D02*
D03*
X179097D02*
D03*
X137759Y86674D02*
D03*
Y92580D02*
D03*
Y98485D02*
D03*
X112168Y80769D02*
D03*
X118074Y86674D02*
D03*
X112168D02*
D03*
X123979Y92580D02*
D03*
X118074D02*
D03*
X112168D02*
D03*
X123979Y98485D02*
D03*
X118074D02*
D03*
X112168D02*
D03*
X94452Y122107D02*
D03*
Y116202D02*
D03*
Y110296D02*
D03*
Y104391D02*
D03*
Y98485D02*
D03*
X96420Y128013D02*
D03*
Y133918D02*
D03*
X90515Y128013D02*
D03*
X84609D02*
D03*
X78704D02*
D03*
X72798D02*
D03*
X90515Y133918D02*
D03*
X84609D02*
D03*
X78704D02*
D03*
X72798D02*
D03*
X49176Y131950D02*
D03*
X37402Y143701D02*
D03*
X37365Y173288D02*
D03*
X31460D02*
D03*
X29528Y187008D02*
D03*
X29491Y181162D02*
D03*
X21617Y187068D02*
D03*
Y181162D02*
D03*
X13743Y187068D02*
D03*
Y181162D02*
D03*
X11775Y131950D02*
D03*
Y126044D02*
D03*
X43271Y131950D02*
D03*
X37365D02*
D03*
X43271Y126044D02*
D03*
X37365D02*
D03*
X43271Y120139D02*
D03*
X37365D02*
D03*
X23586D02*
D03*
X17680D02*
D03*
X11811Y120079D02*
D03*
X11775Y114233D02*
D03*
Y108328D02*
D03*
Y102422D02*
D03*
Y96517D02*
D03*
Y90611D02*
D03*
X35397Y84706D02*
D03*
X29491D02*
D03*
X23586D02*
D03*
X17680D02*
D03*
X11775D02*
D03*
X17680Y78800D02*
D03*
X11775D02*
D03*
X17680Y72895D02*
D03*
X11775D02*
D03*
X94452Y92580D02*
D03*
X86578D02*
D03*
X76735Y74863D02*
D03*
Y80769D02*
D03*
X106263Y11871D02*
D03*
Y17777D02*
D03*
X100357Y11871D02*
D03*
Y17777D02*
D03*
X94452Y11871D02*
D03*
Y17777D02*
D03*
X88546Y11871D02*
D03*
Y17777D02*
D03*
X82641Y11871D02*
D03*
Y17777D02*
D03*
X76735Y11871D02*
D03*
Y17777D02*
D03*
X66893Y29588D02*
D03*
X59019D02*
D03*
X66893Y35493D02*
D03*
X59019D02*
D03*
X43271D02*
D03*
Y41399D02*
D03*
X17680Y49273D02*
D03*
X11775D02*
D03*
X17680Y55178D02*
D03*
X11775D02*
D03*
X17680Y61084D02*
D03*
X11775D02*
D03*
X17680Y66989D02*
D03*
X11811Y66929D02*
D03*
X115037Y64037D02*
D03*
X115005Y71424D02*
D03*
X94725Y178249D02*
D03*
X94737Y182337D02*
D03*
X118537Y113937D02*
D03*
X129116Y74137D02*
D03*
X135319D02*
D03*
X154929Y66141D02*
D03*
X154638Y73361D02*
D03*
X47437Y31637D02*
D03*
X60937Y78937D02*
D03*
X263437Y79737D02*
D03*
X229137Y81037D02*
D03*
X156073Y81813D02*
D03*
X231237Y63537D02*
D03*
X317421Y43011D02*
D03*
X156937Y162937D02*
D03*
X89425Y178249D02*
D03*
X84225D02*
D03*
X89425Y182349D02*
D03*
X84225D02*
D03*
X18737Y140637D02*
D03*
X14137D02*
D03*
X9737D02*
D03*
X30437Y146837D02*
D03*
X24737D02*
D03*
X157337Y155437D02*
D03*
X157037Y169337D02*
D03*
X104337Y141037D02*
D03*
X68937Y151237D02*
D03*
X69057Y143551D02*
D03*
X31737Y168637D02*
D03*
X60837Y172437D02*
D03*
X52737D02*
D03*
X66237Y79137D02*
D03*
X72037Y7437D02*
D03*
X41846Y9122D02*
D03*
X41737Y14437D02*
D03*
X108587Y113837D02*
D03*
X129334Y116540D02*
D03*
X164439Y146239D02*
D03*
X124342Y146426D02*
D03*
X130999Y123424D02*
D03*
X131205Y108189D02*
D03*
X221237Y129937D02*
D03*
X219142Y137526D02*
D03*
X187104Y114356D02*
D03*
X277905Y112524D02*
D03*
X237205Y112024D02*
D03*
X270805Y102922D02*
D03*
X266205Y91024D02*
D03*
X220205Y105024D02*
D03*
X168205Y106024D02*
D03*
X151205Y96024D02*
D03*
X187000Y96000D02*
D03*
X126205Y159024D02*
D03*
X168183Y110997D02*
D03*
X168205Y101024D02*
D03*
X227984Y161770D02*
D03*
X228137Y168937D02*
D03*
X227837Y154644D02*
D03*
X315837Y170463D02*
D03*
X315937Y184737D02*
D03*
X317705Y57024D02*
D03*
M02*
